objid	container	server_template_crc	cell_index	px	py	pz	qw	qx	qy	qz	scripts	objvars
i	i	h	i	f	f	f	f	f	f	f	s	p
5165352	0	object/building/endor/endor_village_tree.iff	0	105	9	72.5	-3.20013e-008	0	1	0		$|
5165354	0	object/building/endor/endor_catwalk.iff	0	105	29	56.5	1	0	0	0		$|
5165356	0	object/building/endor/endor_catwalk.iff	0	89	29.072	40.5	0.707108	0	-0.707105	0		$|
5165358	0	object/building/endor/endor_village_tree.iff	0	105	9	40.5	-3.20013e-008	0	1	0		$|
5165359	0	object/building/endor/endor_forest_hut.iff	0	110.107	28.9998	69.1935	0.466208	0	0.884675	0		$|
5165360	0	object/building/endor/endor_forest_hut.iff	0	100.663	9	62.8935	-0.115538	0	0.993303	0		$|
5165361	0	object/building/endor/endor_forest_hut.iff	0	101.19	19.0786	67.5467	-0.328769	0	0.94441	0		$|
5165365	0	object/building/endor/endor_catwalk_cap.iff	0	94	29.072	40.5	0.707108	0	-0.707105	0		$|
5165366	0	object/building/endor/endor_village_tree.iff	0	82.5	9	72.5	0.707108	0	0.707106	0		$|
5165368	0	object/building/endor/endor_catwalk_cap.iff	0	93.75	29	72.5	0.707108	0	-0.707106	0		$|
5165369	0	object/building/endor/endor_catwalk_cap.iff	0	93.75	18.9258	72.5	-0.707107	0	0.707107	0		$|
5165370	0	object/building/endor/endor_village_tree_viewpoint.iff	0	104.5	29	84	1	0	0	0		$|
5165371	0	object/building/endor/endor_village_tree_viewpoint.iff	0	82.4032	29	61.0031	3.20013e-008	0	1	0		$|
5165372	0	object/building/endor/endor_catwalk.iff	0	82.5	19	56.5	1	0	0	0		$|
5165373	0	object/building/endor/endor_catwalk_cap.iff	0	82.5	19	51.5	1	0	0	0		$|
5165374	0	object/building/endor/endor_catwalk.iff	0	82.5	19	46.5	1	0	0	0		$|
5165375	0	object/building/endor/endor_catwalk_cap.iff	0	82.5	19	61.5	1	0	0	0		$|
5165376	0	object/building/endor/endor_catwalk_cap.iff	0	82.5	19	41.5	1	0	0	0		$|
5165377	0	object/building/endor/endor_catwalk.iff	0	82.5	19	36.5	1	0	0	0		$|
5165378	0	object/building/endor/endor_catwalk_cap.iff	0	82.5	19	31.5	1	0	0	0		$|
5165379	0	object/building/endor/endor_catwalk.iff	0	82.5	19	26.5	1	0	0	0		$|
5165380	0	object/building/endor/endor_catwalk_cap.iff	0	82.5	19	21.5	1	0	0	0		$|
5165381	0	object/building/endor/endor_village_tree.iff	0	82.5	9	10.5	-0.707103	0	0.70711	0		$|
5165382	0	object/building/endor/endor_catwalk.iff	0	79	29.072	40.5	-0.707107	0	0.707107	0		$|
5165383	0	object/building/endor/endor_catwalk_cap.iff	0	84	29.072	40.5	-0.707107	0	0.707107	0		$|
5165386	0	object/building/endor/endor_village_tree.iff	0	63	9.07185	40.5	-0.707103	0	0.70711	0		$|
5165388	0	object/building/endor/endor_village_tree_viewpoint.iff	0	105	19	61	3.20013e-008	0	1	0		$|
5165389	0	object/building/endor/endor_village_tree_viewpoint.iff	0	105	19	29	0	0	1	0		$|
5165390	0	object/building/endor/endor_village_tree_viewpoint.iff	0	93.5	19	40.5	0.707108	0	-0.707106	0		$|
5165391	0	object/building/endor/endor_village_tree_viewpoint.iff	0	105	29	29	0	0	1	0		$|
5165392	0	object/building/endor/endor_village_tree_viewpoint.iff	0	71	19	10.5	0.707108	0	-0.707106	0		$|
5165393	0	object/building/endor/endor_village_tree_viewpoint.iff	0	71	29	10.5	0.707108	0	-0.707106	0		$|
5165394	0	object/building/endor/endor_village_tree_viewpoint.iff	0	82.5	29	22	1	0	0	0		$|
5165395	0	object/building/endor/endor_village_tree_viewpoint.iff	0	71	29	72.5	0.707111	0	-0.707102	0		$|
5165408	0	object/building/endor/endor_village_tree_viewpoint.iff	0	51.5	29	40.5	0.707112	0	-0.707101	0		$|
5165409	0	object/building/endor/endor_village_tree_viewpoint.iff	0	51.5	19	40.5	0.707112	0	-0.707101	0		$|
5165410	0	object/building/endor/endor_village_tree_viewpoint.iff	0	63	19	52	1	0	0	0		$|
5165411	0	object/building/endor/endor_village_tree_viewpoint.iff	0	63	29	52	1	0	0	0		$|
5165415	0	object/building/endor/endor_village_tree_viewpoint.iff	0	94	29	10.5	0.707107	0	0.707106	0		$|
5165416	0	object/building/endor/endor_forest_hut.iff	0	96.0157	9	66.457	-0.417594	0	0.908633	0		$|
5165417	0	object/building/endor/endor_forest_hut.iff	0	99.6883	9	48.2504	0.94441	0	-0.328769	0		$|
5165418	0	object/building/endor/endor_forest_hut.iff	0	74.2795	9	66.8586	-0.243329	0	0.969944	0		$|
5165419	0	object/building/endor/endor_forest_hut.iff	0	71.2103	9	46.164	0.900447	0	0.434966	0		$|
5165421	0	object/building/endor/endor_forest_hut.iff	0	86.6033	8.88653	63.3652	0.069148	0	0.997606	0		$|
5165422	0	object/building/endor/endor_forest_hut.iff	0	66.0803	9	50.1928	0.980066	0	0.19867	0		$|
5165423	0	object/building/endor/endor_forest_hut.iff	0	73.7568	9	41.652	0.761611	0	0.648034	0		$|
5165424	0	object/building/endor/endor_forest_hut.iff	0	94.7094	9	42.0427	0.748499	0	-0.663136	0		$|
5165425	0	object/building/endor/endor_forest_hut.iff	0	95.2828	9	36.4581	-0.519098	0	0.854715	0		$|
5165426	0	object/building/endor/endor_forest_hut.iff	0	90.3737	9	16.4936	0.879969	0	0.475031	0		$|
5165427	0	object/building/endor/endor_forest_hut.iff	0	84.7768	9	20.7502	0.998988	0	0.044984	0		$|
5165428	0	object/building/endor/endor_forest_hut.iff	0	78.7327	9	20.0266	0.967663	0	-0.252246	0		$|
5165429	0	object/building/endor/endor_forest_hut.iff	0	73.5514	9	35.7331	0.522009	0	0.85294	0		$|
5165430	0	object/building/endor/endor_forest_hut.iff	0	101.458	29.0676	77.6123	0.953847	0	-0.300294	0		$|
5165431	0	object/building/endor/endor_forest_hut.iff	0	86.0961	19.0571	67.6135	0.304301	0	0.952576	0		$|
5165432	0	object/building/endor/endor_forest_hut.iff	0	78.8688	29.0647	67.2775	-0.291501	0	0.956571	0		$|
5165433	0	object/building/endor/endor_forest_hut.iff	0	85.7837	29.0609	76.8677	0.952334	0	0.305058	0		$|
5165434	0	object/building/endor/endor_forest_hut.iff	0	109.951	29.0569	37.4009	0.425219	0	0.90509	0		$|
5165435	0	object/building/endor/endor_forest_hut.iff	0	99.9444	19.0275	36.9204	-0.431176	0	0.902268	0		$|
5165436	0	object/building/endor/endor_forest_hut.iff	0	59.4001	29.1241	45.3273	0.955336	0	-0.295521	0		$|
5165437	0	object/building/endor/endor_forest_hut.iff	0	59.5613	29.1241	35.6861	-0.320063	0	0.947396	0		$|
5165438	0	object/building/endor/endor_forest_hut.iff	0	59.7829	19.1473	45.528	0.94441	0	-0.32877	0		$|
5165439	0	object/building/endor/endor_forest_hut.iff	0	77.5975	19.0548	13.9118	0.884675	0	-0.466209	0		$|
5165440	0	object/building/endor/endor_forest_hut.iff	0	77.7613	29.0485	7.23653	-0.466912	0	0.884304	0		$|
5165441	0	object/building/endor/endor_tiki_torch.iff	0	95.9919	9	49.5497	1	0	0	0		$|
5165445	0	object/building/endor/endor_tiki_torch.iff	0	74.6845	9.26159	63.4908	1	0	0	0		$|
5165446	0	object/building/endor/endor_tiki_torch.iff	0	91.7224	9	19.5571	1	0	0	0		$|
5165447	0	object/building/endor/endor_tiki_torch.iff	0	95.9525	19.0232	66.0548	1	0	0	0		$|
5165448	0	object/building/endor/endor_tiki_torch.iff	0	107.266	29.1715	82.981	1	0	0	0		$|
5165449	0	object/building/endor/endor_tiki_torch.iff	0	84.7586	28.9601	82.7617	1	0	0	0		$|
5165450	0	object/building/endor/endor_tiki_torch.iff	0	54.1967	19.0684	46.7629	1	0	0	0		$|
5165451	0	object/building/endor/endor_tiki_torch.iff	0	54.7586	29.0781	33.4383	1	0	0	0		$|
5165452	0	object/building/endor/endor_tiki_torch.iff	0	115.559	28.966	70.0315	1	0	0	0		$|
5165453	0	object/building/endor/endor_tiki_torch.iff	0	115.397	29.0257	38.1265	1	0	0	0		$|
5165454	0	object/building/endor/endor_tiki_torch.iff	0	76.6244	28.9471	1.70279	0.999888	0	0.0149994	0		$|
5165455	0	object/building/endor/endor_tiki_torch.iff	0	60.4343	29.1443	50.9714	1	0	0	0		$|
5165456	0	object/building/endor/endor_tiki_torch.iff	0	77.4578	9	38.9248	1	0	0	0		$|
5165457	0	object/building/endor/endor_tiki_torch.iff	0	120.425	9.69756	0.910521	1	0	0	0		$|
5165459	0	object/building/endor/endor_tiki_torch.iff	0	74.7865	9	22.0976	1	0	0	0		$|
5265430	0	object/building/endor/endor_tiki_torch.iff	0	89.0217	19.0175	63.2761	1	0	0	0		$|
5265431	0	object/static/structure/general/campfire_fresh.iff	0	97.6687	9	60.638	1	0	0	0		$|
5665381	0	object/building/endor/endor_catwalk_cap.iff	0	73.9251	29.0273	40.5444	-0.707107	0	0.707107	0		$|
5665382	0	object/building/endor/endor_catwalk_cap.iff	0	73.9308	29.0273	40.5002	-0.707107	0	0.707107	0		$|
6665352	0	object/building/endor/endor_tiki_torch.iff	0	94.5762	29.3508	38.8375	1	0	0	0		$|
9705901	0	object/building/endor/endor_catwalk.iff	0	79.204	28.9096	996.894	0.717911	0	0.696135	0		$|
9705903	0	object/building/endor/endor_catwalk.iff	0	86.2513	28.9439	997.053	-0.700284	0	0.713864	0		$|
9705907	0	object/building/endor/endor_catwalk.iff	0	73.8427	28.9075	999.95	0.992809	0	-0.119712	0		$|
9705908	0	object/building/endor/endor_catwalk.iff	0	72.2226	28.9357	1006.81	0.113956	0	0.993486	0		$|
9705909	0	object/building/endor/endor_catwalk.iff	0	70.6118	28.9419	1013.68	0.992809	0	-0.119712	0		$|
9705911	0	object/building/endor/endor_forest_hut.iff	0	74.2699	14.3391	999.729	1	0	0	0		$|
9705913	0	object/building/endor/endor_forest_hut.iff	0	88.9268	14.887	997.859	0.796084	0	-0.605186	0		$|
