objid	container	server_template_crc	cell_index	px	py	pz	qw	qx	qy	qz	scripts	objvars
i	i	h	i	f	f	f	f	f	f	f	s	p
9715492	0	object/static/structure/naboo/gungan_wall_ruined_sm_s02.iff	0	2021.57	75.1927	1535.45	0.92388	0	-0.382683	0		$|
9715493	0	object/static/structure/naboo/gungan_wall_ruined_lg_s02.iff	0	2027.12	73.8412	1534.68	0.924909	0	0.380188	0		$|
9715494	0	object/static/structure/naboo/gungan_sacred_head_s01.iff	0	2023.47	75.2215	1544.45	-0.0243415	-0.0485802	0.968453	0.243202		$|
9715495	0	object/static/structure/naboo/gungan_sacred_head_s01.iff	0	2016.06	72.4236	1537.94	0.770509	-0.635672	-0.0447978	-0.0151669		$|
