component	engine	booster	weapon_0	weapon_1
s	s	s	s	s
collection_reward_booster_01_mk1		blacksun_medium_booster_s02:booster1		
collection_reward_booster_01_mk2		blacksun_medium_booster_s02:booster1		
collection_reward_booster_01_mk3		blacksun_medium_booster_s02:booster1		
collection_reward_booster_01_mk4		blacksun_medium_booster_s02:booster1		
collection_reward_booster_01_mk5		blacksun_medium_booster_s02:booster1		
bst_corellian_advanced_thrust_enhancer		blacksun_medium_booster_s01:booster1		
bst_corellian_elite_thrust_enhancer		blacksun_medium_booster_s01:booster1		
bst_corellian_experimental_tjh3		blacksun_medium_booster_s01:booster1		
bst_corellian_heavy_thrust_enhancer		blacksun_medium_booster_s02:booster1		
bst_corellian_highly_modified_elite_thrust_enhancer		blacksun_medium_booster_s01:booster1		
bst_corellian_performance_advanced_thrust_enhancer		blacksun_medium_booster_s01:booster1		
bst_corellian_promotional_standard_thrust_enhancer		blacksun_medium_booster_s01:booster1		
bst_corellian_standard_thrust_enhancer		blacksun_medium_booster_s01:booster1		
bst_corellian_tjh3		blacksun_medium_booster_s01:booster1		
bst_corellian_tuned_heavy_thrust_enhancer		blacksun_medium_booster_s02:booster1
bst_cygnus_flashboost3		blacksun_medium_booster_s01:booster1
bst_cygnus_flashboost4		blacksun_medium_booster_s01:booster1
bst_elite_booster		blacksun_medium_booster_s01:booster1
bst_freitek_outrunner_x1		blacksun_medium_booster_s01:booster1
bst_gallofree_light		blacksun_medium_booster_s01:booster1
bst_generic		blacksun_medium_booster_s01:booster1
bst_incom_deluxe_fynock		blacksun_medium_booster_s01:booster1
bst_incom_elite_sls_1		blacksun_medium_booster_s01:booster1
bst_incom_enhanced_mynock		blacksun_medium_booster_s01:booster1
bst_incom_fynock		blacksun_medium_booster_s01:booster1
bst_incom_intimidator_mk1		blacksun_medium_booster_s01:booster1
bst_incom_intimidator_mk2		blacksun_medium_booster_s01:booster1
bst_incom_intimidator_mk3		blacksun_medium_booster_s01:booster1
bst_incom_intimidator_mk4		blacksun_medium_booster_s01:booster1
bst_incom_mynock		blacksun_medium_booster_s01:booster1
bst_incom_nkj31		blacksun_medium_booster_s01:booster1
bst_incom_performance_nkj31		blacksun_medium_booster_s01:booster1
bst_incom_sls_1		blacksun_medium_booster_s01:booster1
bst_incom_supercharged_vynock		blacksun_medium_booster_s02:booster1
bst_incom_vynock		blacksun_medium_booster_s01:booster1
bst_kde_br12		blacksun_medium_booster_s01:booster1
bst_kessel_imperial_cygnus_hyperthrust		blacksun_medium_booster_s01:booster1
bst_kessel_imperial_sds_experimental_b7		blacksun_medium_booster_s01:booster1
bst_kessel_imperial_sfs_ultra_thrust		blacksun_medium_booster_s01:booster1
bst_kessel_rebel_incom_quicksilver		blacksun_medium_booster_s01:booster1
bst_kessel_rebel_incom_windrunner		blacksun_medium_booster_s01:booster1
bst_kessel_rebel_mandal_lightning_m1		blacksun_medium_booster_s01:booster1
bst_koensayr_advanced		blacksun_medium_booster_s01:booster1
bst_koensayr_charged_advanced		blacksun_medium_booster_s01:booster1
bst_koensayr_deluxe_elite		blacksun_medium_booster_s01:booster1
bst_koensayr_elite		blacksun_medium_booster_s01:booster1
bst_koensayr_evh12		blacksun_medium_booster_s01:booster1
bst_koensayr_heavy		blacksun_medium_booster_s02:booster1
bst_koensayr_modified_heavy		blacksun_medium_booster_s02:booster1
bst_koensayr_racer_mk1		blacksun_medium_booster_s02:booster1
bst_koensayr_racer_mk2		blacksun_medium_booster_s02:booster1
bst_koensayr_racer_mk3		blacksun_medium_booster_s02:booster1
bst_koensayr_racer_mk4		blacksun_medium_booster_s02:booster1
bst_koensayr_special_evh12		blacksun_medium_booster_s01:booster1
bst_koensayr_improved_standard		blacksun_medium_booster_s01:booster1
bst_koensayr_standard		blacksun_medium_booster_s01:booster1
bst_kse_als_1		blacksun_medium_booster_s01:booster1
bst_kse_bti1		blacksun_medium_booster_s01:booster1
bst_kse_bti2		blacksun_medium_booster_s01:booster1
bst_kse_bti3		blacksun_medium_booster_s01:booster1
bst_kse_cb6		blacksun_medium_booster_s01:booster1
bst_kse_deluxe_bti3		blacksun_medium_booster_s01:booster1
bst_kse_elite_als_1		blacksun_medium_booster_s01:booster1
bst_kse_enhanced_bti2		blacksun_medium_booster_s01:booster1
bst_kse_performance_bti1		blacksun_medium_booster_s01:booster1
bst_kse_performance_cb6		blacksun_medium_booster_s01:booster1
bst_kuat_military_mk1		blacksun_medium_booster_s02:booster1
bst_kuat_military_mk2		blacksun_medium_booster_s02:booster1
bst_kuat_military_mk3		blacksun_medium_booster_s01:booster1
bst_kuat_military_mk4		blacksun_medium_booster_s02:booster1
bst_mandal_deluxe_jbj_mk4		blacksun_medium_booster_s01:booster1
bst_mandal_enhanced_jbj_mk1		blacksun_medium_booster_s01:booster1
bst_mandal_improved_jbj_mk3		blacksun_medium_booster_s01:booster1
bst_mandal_jbj_mk1		blacksun_medium_booster_s01:booster1
bst_mandal_jbj_mk2		blacksun_medium_booster_s01:booster1
bst_mandal_jbj_mk3		blacksun_medium_booster_s01:booster1
bst_mandal_jbj_mk4		blacksun_medium_booster_s01:booster1
bst_mandal_jbj_mk5		blacksun_medium_booster_s01:booster1
bst_mandal_limited_jbj_mk5		blacksun_medium_booster_s01:booster1
bst_mandal_modified_jbj_mk2		blacksun_medium_booster_s01:booster1
bst_mission_reward_imperial_rss_ion_booster		blacksun_medium_booster_s02:booster1
bst_mission_reward_neutral_mandal_m_series		blacksun_medium_booster_s02:booster1
bst_mission_reward_neutral_mandal_q_series		blacksun_medium_booster_s02:booster1
bst_mission_reward_rebel_novaldex_hypernova		blacksun_medium_booster_s02:booster1
bst_mission_reward_rebel_qualdex_halcyon		blacksun_medium_booster_s02:booster1
bst_mk1		blacksun_medium_booster_s01:booster1
bst_mk2		blacksun_medium_booster_s01:booster1
bst_mk3		blacksun_medium_booster_s02:booster1
bst_mk4		blacksun_medium_booster_s02:booster1
bst_mk5		blacksun_medium_booster_s02:booster1
bst_moncal_advanced		blacksun_medium_booster_s01:booster1
bst_moncal_charged_heavy		blacksun_medium_booster_s01:booster1
bst_moncal_deluxe_standard		blacksun_medium_booster_s01:booster1
bst_moncal_elite		blacksun_medium_booster_s01:booster1
bst_moncal_enhanced_elite		blacksun_medium_booster_s01:booster1
bst_moncal_heavy		blacksun_medium_booster_s01:booster1
bst_moncal_jlc37		blacksun_medium_booster_s01:booster1
bst_moncal_limited_jlc37		blacksun_medium_booster_s01:booster1
bst_moncal_rare_advanced		blacksun_medium_booster_s01:booster1
bst_moncal_standard		blacksun_medium_booster_s01:booster1
bst_nova_breaker		blacksun_medium_booster_s01:booster1
bst_novaldex_pulsar		blacksun_medium_booster_s01:booster1
bst_novaldex_pulsar_advanced		blacksun_medium_booster_s01:booster1
bst_novaldex_quasar		blacksun_medium_booster_s01:booster1
bst_novaldex_quasar_advanced		blacksun_medium_booster_s01:booster1
bst_qualdex_xboost_mk1		blacksun_medium_booster_s01:booster1
bst_qualdex_xboost_mk2		blacksun_medium_booster_s01:booster1
bst_qualdex_xboost_mk3		blacksun_medium_booster_s01:booster1
bst_qualdex_xboost_mk4		blacksun_medium_booster_s01:booster1
bst_reward_incom_elite		blacksun_medium_booster_s01:booster1
bst_reward_koensayr_elite		blacksun_medium_booster_s01:booster1
bst_reward_kuat_elite		blacksun_medium_booster_s01:booster1
bst_reward_novaldex_elite		blacksun_medium_booster_s01:booster1
bst_reward_qualdex_elite		blacksun_medium_booster_s01:booster1
bst_rss_special		blacksun_medium_booster_s01:booster1
bst_sap_imperial_1		blacksun_medium_booster_s01:booster1
bst_sap_imperial_2		blacksun_medium_booster_s01:booster1
bst_sds_enhanced_imperial_2		blacksun_medium_booster_s01:booster1
bst_sfs_imperial_1		blacksun_medium_booster_s01:booster1
bst_sfs_imperial_2		blacksun_medium_booster_s01:booster1
bst_slayn_ion_booster_mk1		blacksun_medium_booster_s01:booster1
bst_sorosuub_enhanced_liberator_mk4		blacksun_medium_booster_s01:booster1
bst_sorosuub_improved_liberator_mk2		blacksun_medium_booster_s01:booster1
bst_sorosuub_liberator_mk1		blacksun_medium_booster_s01:booster1
bst_sorosuub_liberator_mk2		blacksun_medium_booster_s01:booster1
bst_sorosuub_liberator_mk3		blacksun_medium_booster_s01:booster1
bst_sorosuub_liberator_mk4		blacksun_medium_booster_s01:booster1
bst_sorosuub_liberator_mk5		blacksun_medium_booster_s01:booster1
bst_sorosuub_prized_liberator_mk1		blacksun_medium_booster_s01:booster1
bst_sorosuub_supercharged_liberator_mk3		blacksun_medium_booster_s01:booster1
bst_sorosuub_well_tuned_liberator_mk5		blacksun_medium_booster_s01:booster1
bst_subpro_accelatron_mk1		blacksun_medium_booster_s01:booster1
bst_subpro_accelatron_mk2		blacksun_medium_booster_s01:booster1
bst_subpro_accelatron_mk3		blacksun_medium_booster_s01:booster1
bst_subpro_accelatron_mk4		blacksun_medium_booster_s01:booster1
bst_subpro_accelatron_mk5		blacksun_medium_booster_s01:booster1
bst_subpro_deluxe_accelatron_mk3		blacksun_medium_booster_s01:booster1
bst_subpro_elite_accelatron_mk5		blacksun_medium_booster_s01:booster1
bst_subpro_enhanced_accelatron_mk2		blacksun_medium_booster_s01:booster1
bst_subpro_modified_accelatron_mk4		blacksun_medium_booster_s01:booster1
bst_subpro_tuned_accelatron_mk1		blacksun_medium_booster_s01:booster1
bst_surronian_accelerator_mk1		blacksun_medium_booster_s01:booster1
bst_surronian_accelerator_mk2		blacksun_medium_booster_s01:booster1
bst_surronian_nomad_x4		blacksun_medium_booster_s01:booster1
bst_surronian_nomad_x8		blacksun_medium_booster_s01:booster1
bst_tiefighter_basic		blacksun_medium_booster_s02:booster1
bst_xwing_booster_s01		blacksun_medium_booster_s01:booster1
bst_z95_basic		blacksun_medium_booster_s01:booster1
eng_bezelbok_kessel_runner	blacksun_medium_engine_s02:engine1	
eng_corellian_cruiser_grade_mk1	blacksun_medium_engine_s01:engine1	
eng_corellian_cruiser_grade_mk2	blacksun_medium_engine_s01:engine1	
eng_corellian_deluxe_cruiser_grade_mk1	blacksun_medium_engine_s01:engine1	
eng_crafted_incom_fusialthrust	blacksun_medium_engine_s01:engine1	
eng_crafted_novaldex_eventhorizon	blacksun_medium_engine_s02:engine1	
eng_crafted_qualdex_kyromaster	blacksun_medium_engine_s02:engine1	
eng_cygnus_hd3	blacksun_medium_engine_s01:engine1	
eng_cygnus_hd7	blacksun_medium_engine_s01:engine1	
eng_cygnus_hd8	blacksun_medium_engine_s01:engine1	
eng_cygnus_hd_5	blacksun_medium_engine_s01:engine1
eng_cygnus_hdx	blacksun_medium_engine_s01:engine1
eng_damorian_rx7	blacksun_medium_engine_s01:engine1
eng_freitek_dual_jet	blacksun_medium_engine_s01:engine1
eng_gallofree_advanced	blacksun_medium_engine_s01:engine1
eng_gallofree_jx2	blacksun_medium_engine_s01:engine1
eng_gallofree_jx3	blacksun_medium_engine_s01:engine1
eng_generic	blacksun_medium_engine_s01:engine1
eng_h17_singularity	blacksun_medium_engine_s02:engine1
eng_haor_chall_old_engine	blacksun_medium_engine_s01:engine1
eng_incom_advanced	blacksun_medium_engine_s01:engine1
eng_incom_advanced_fusialthrust	blacksun_medium_engine_s01:engine1
eng_incom_e16	blacksun_medium_engine_s01:engine1
eng_incom_elite	blacksun_medium_engine_s01:engine1
eng_incom_fusialthrust	blacksun_medium_engine_s01:engine1
eng_incom_fusialthrust_2	blacksun_medium_engine_s01:engine1
eng_incom_heavy_fusialthrust	blacksun_medium_engine_s01:engine1
eng_incom_improved_fusialthrust_2	blacksun_medium_engine_s01:engine1
eng_incom_light_fusialthrust	blacksun_medium_engine_s01:engine1
eng_koensayr_advanced	blacksun_medium_engine_s01:engine1
eng_koensayr_dual_small_ionjet	blacksun_medium_engine_s01:engine1
eng_koensayr_elite	blacksun_medium_engine_s01:engine1
eng_koensayr_enhanced_dual_small_ionjet	blacksun_medium_engine_s01:engine1
eng_koensayr_heavy_ionjet	blacksun_medium_engine_s01:engine1
eng_koensayr_ionjet	blacksun_medium_engine_s01:engine1
eng_koensayr_small_ionjet	blacksun_medium_engine_s01:engine1
eng_koensayr_tuned_small_ionjet	blacksun_medium_engine_s01:engine1
eng_kongar_defender	blacksun_medium_engine_s01:engine1
eng_kse_a2x	blacksun_medium_engine_s01:engine1
eng_kse_a5x	blacksun_medium_engine_s01:engine1
eng_kse_a7x	blacksun_medium_engine_s01:engine1
eng_kse_a8x	blacksun_medium_engine_s01:engine1
eng_kse_advanced	blacksun_medium_engine_s01:engine1
eng_kse_elite	blacksun_medium_engine_s01:engine1
eng_kse_improved_a2x	blacksun_medium_engine_s01:engine1
eng_kuat_a9x	blacksun_medium_engine_s01:engine1
eng_kuat_f31	blacksun_medium_engine_s01:engine1
eng_kuat_tc40	blacksun_medium_engine_s01:engine1
eng_mandal_advanced	blacksun_medium_engine_s01:engine1
eng_mandal_elite	blacksun_medium_engine_s01:engine1
eng_mandal_enhanced_heavy	blacksun_medium_engine_s01:engine1
eng_mandal_firestorm	blacksun_medium_engine_s01:engine1
eng_mandal_firestorm_2	blacksun_medium_engine_s01:engine1
eng_mandal_heavy	blacksun_medium_engine_s01:engine1
eng_mandal_x37_vandal	blacksun_medium_engine_s01:engine1
eng_mandal_x57_vandal	blacksun_medium_engine_s01:engine1
eng_mission_reward_imperial_cygnus_megadrive	blacksun_medium_engine_s02:engine1
eng_mission_reward_neutral_haor_chall_military	blacksun_medium_engine_s02:engine1
eng_mission_reward_neutral_mandal_inferno	blacksun_medium_engine_s02:engine1
eng_mission_reward_rebel_incom_military	blacksun_medium_engine_s02:engine1
eng_mk1	blacksun_medium_engine_s01:engine1
eng_mk2	blacksun_medium_engine_s01:engine1
eng_mk3	blacksun_medium_engine_s02:engine1
eng_mk4	blacksun_medium_engine_s02:engine1
eng_mk5	blacksun_medium_engine_s02:engine1
eng_moncal_charged_standard	blacksun_medium_engine_s01:engine1
eng_moncal_enhanced_light	blacksun_medium_engine_s01:engine1
eng_moncal_heavy	blacksun_medium_engine_s01:engine1
eng_moncal_ifs32	blacksun_medium_engine_s01:engine1
eng_moncal_ifs64	blacksun_medium_engine_s01:engine1
eng_moncal_improved_heavy	blacksun_medium_engine_s01:engine1
eng_moncal_light	blacksun_medium_engine_s01:engine1
eng_moncal_standard	blacksun_medium_engine_s01:engine1
eng_novaldex_advanced	blacksun_medium_engine_s01:engine1
eng_novaldex_eventhorizon	blacksun_medium_engine_s02:engine1
eng_novaldex_light_eventhorizon	blacksun_medium_engine_s01:engine1
eng_novaldex_singularity	blacksun_medium_engine_s02:engine1
eng_novaldex_x12	blacksun_medium_engine_s02:engine1
eng_novaldex_x6	blacksun_medium_engine_s01:engine1
eng_novaldex_x7	blacksun_medium_engine_s01:engine1
eng_novaldex_x9	blacksun_medium_engine_s01:engine1
eng_nubian_221	blacksun_medium_engine_s01:engine1
eng_nubian_221_racing_mod	blacksun_medium_engine_s01:engine1
eng_prototype	blacksun_medium_engine_s02:engine1
eng_qualdex_a10	blacksun_medium_engine_s02:engine1
eng_qualdex_a13	blacksun_medium_engine_s01:engine1
eng_qualdex_advanced	blacksun_medium_engine_s01:engine1
eng_qualdex_b10	blacksun_medium_engine_s01:engine1
eng_qualdex_elite	blacksun_medium_engine_s01:engine1
eng_qualdex_igt	blacksun_medium_engine_s02:engine1
eng_qualdex_kyromaster	blacksun_medium_engine_s02:engine1
eng_qualdex_small_kyromaster	blacksun_medium_engine_s01:engine1
eng_quantum_ion_drive	blacksun_medium_engine_s02:engine1
eng_rendili_demon_mk1	blacksun_medium_engine_s01:engine1
eng_rendili_elite	blacksun_medium_engine_s01:engine1
eng_rss_advanced	blacksun_medium_engine_s01:engine1
eng_rss_elite	blacksun_medium_engine_s01:engine1
eng_rss_imperial_skyrunner	blacksun_medium_engine_s01:engine1
eng_rss_imperial_skyrunner_2	blacksun_medium_engine_s01:engine1
eng_rss_imperial_skyrunner_3	blacksun_medium_engine_s01:engine1
eng_rss_imperial_skyrunner_4	blacksun_medium_engine_s01:engine1
eng_sds_imperial_1	blacksun_medium_engine_s01:engine1
eng_sds_imperial_2	blacksun_medium_engine_s01:engine1
eng_sds_limited_imperial_1	blacksun_medium_engine_s01:engine1
eng_seinar_ps56	blacksun_medium_engine_s01:engine1
eng_sfs_advanced	blacksun_medium_engine_s01:engine1
eng_sfs_elite	blacksun_medium_engine_s01:engine1
eng_sfs_imperial_1	blacksun_medium_engine_s01:engine1
eng_sfs_imperial_2	blacksun_medium_engine_s01:engine1
eng_sfs_imperial_3	blacksun_medium_engine_s01:engine1
eng_sfs_imperial_4	blacksun_medium_engine_s01:engine1
eng_sfs_imperial_5	blacksun_medium_engine_s01:engine1
eng_sfs_modified_imperial_3	blacksun_medium_engine_s01:engine1
eng_sfs_performance_imperial_1	blacksun_medium_engine_s01:engine1
eng_sfs_tuned_imperial_2	blacksun_medium_engine_s01:engine1
eng_sorosuub_l_337_ion_engine	blacksun_medium_engine_s01:engine1
eng_sorosuub_tuned_l_337_ion_engine	blacksun_medium_engine_s01:engine1
eng_sorosuub_u83r_ion_drive	blacksun_medium_engine_s01:engine1
eng_subpro_light_engines	blacksun_medium_engine_s01:engine1
eng_surronian_a2	blacksun_medium_engine_s02:engine1
eng_surronian_a25	blacksun_medium_engine_s02:engine1
eng_ubrikkian_n2	blacksun_medium_engine_s01:engine1
eng_kessel_imperial_rendili_hyperion_drive	blacksun_medium_engine_s01:engine1
eng_kessel_imperial_sds_special_forces	blacksun_medium_engine_s01:engine1
eng_kessel_imperial_sfs_special_forces	blacksun_medium_engine_s01:engine1
eng_kessel_rebel_incom_t11_elite	blacksun_medium_engine_s01:engine1
eng_kessel_rebel_novaldex_blackhole_elite	blacksun_medium_engine_s01:engine1
eng_kessel_rebel_novaldex_grb1138	blacksun_medium_engine_s01:engine1
eng_reward_kuat_elite	blacksun_medium_engine_s01:engine1
eng_nova_01	blacksun_medium_engine_s01:engine1
eng_orion_01	blacksun_medium_engine_s01:engine1
collection_reward_engine_01_mk1	blacksun_medium_engine_s01:engine1
collection_reward_engine_01_mk2	blacksun_medium_engine_s01:engine1
collection_reward_engine_01_mk3	blacksun_medium_engine_s01:engine1
collection_reward_engine_01_mk4	blacksun_medium_engine_s01:engine1
collection_reward_engine_01_mk5	blacksun_medium_engine_s01:engine1
eng_t86_shooting_star	blacksun_medium_engine_s01:engine1
eng_kuat_m24	blacksun_medium_engine_s01:engine1
wpn_advanced_blaster			blacksun_medium_weapon1_s03:weapon1	blacksun_medium_weapon2_s05:weapon2
wpn_advanced_blaster_green			blacksun_medium_weapon1_s03:weapon1	blacksun_medium_weapon2_s05:weapon2
wpn_advanced_disruptor			blacksun_medium_weapon1_s01:weapon1	blacksun_medium_weapon2_s01:weapon2
wpn_advanced_ioncannon			blacksun_medium_weapon1_s04:weapon1	blacksun_medium_weapon2_s06:weapon2
wpn_armek_advanced			blacksun_medium_weapon1_s01:weapon1	blacksun_medium_weapon2_s01:weapon2
wpn_armek_elite			blacksun_medium_weapon1_s01:weapon1	blacksun_medium_weapon2_s01:weapon2
wpn_armek_sw4			blacksun_medium_weapon1_s04:weapon1	blacksun_medium_weapon2_s04:weapon2
wpn_armek_sw6			blacksun_medium_weapon1_s01:weapon1	blacksun_medium_weapon2_s01:weapon2
wpn_armek_sw7			blacksun_medium_weapon1_s04:weapon1	blacksun_medium_weapon2_s04:weapon2
wpn_armek_sw8			blacksun_medium_weapon1_s01:weapon1	blacksun_medium_weapon2_s01:weapon2
wpn_awing_blaster			blacksun_medium_weapon1_s01:weapon1	blacksun_medium_weapon2_s01:weapon2
wpn_borstel_rg9			blacksun_medium_weapon1_s02:weapon1	blacksun_medium_weapon2_s02:weapon2
wpn_bwing_blaster			blacksun_medium_weapon1_s01:weapon1	blacksun_medium_weapon2_s01:weapon2
wpn_corellian_1d			blacksun_medium_weapon1_s03:weapon1	blacksun_medium_weapon2_s03:weapon2
wpn_corellian_ag1g_laser			blacksun_medium_weapon1_s01:weapon1	blacksun_medium_weapon2_s01:weapon2
wpn_corellian_ag2g_quad_laser			blacksun_medium_weapon1_s04:weapon1	blacksun_medium_weapon2_s04:weapon2
wpn_corellian_cruiser_grade_blaster_mk1			blacksun_medium_weapon1_s01:weapon1	blacksun_medium_weapon2_s01:weapon2
wpn_corellian_heavy_gauss			blacksun_medium_weapon1_s04:weapon1	blacksun_medium_weapon2_s04:weapon2
wpn_crafted_incom_disruptor			blacksun_medium_weapon1_s01:weapon1	blacksun_medium_weapon2_s01:weapon2
wpn_crafted_slayn_ioncannon			blacksun_medium_weapon1_s04:weapon1	blacksun_medium_weapon2_s04:weapon2
wpn_crafted_subpro_tripleblaster			blacksun_medium_weapon1_s04:weapon1	blacksun_medium_weapon2_s04:weapon2
wpn_crafted_tractor_beam			blacksun_medium_weapon1_s01:weapon1	blacksun_medium_weapon2_s01:weapon2
wpn_cygnus_destroyer_mk1			blacksun_medium_weapon1_s01:weapon1	blacksun_medium_weapon2_s01:weapon2
wpn_cygnus_destroyer_mk2			blacksun_medium_weapon1_s01:weapon1	blacksun_medium_weapon2_s01:weapon2
wpn_cygnus_elite			blacksun_medium_weapon1_s01:weapon1	blacksun_medium_weapon2_s01:weapon2
wpn_cygnus_eradicator_1			blacksun_medium_weapon1_s01:weapon1	blacksun_medium_weapon2_s01:weapon2
wpn_experimental_blaster			blacksun_medium_weapon1_s03:weapon1	blacksun_medium_weapon2_s05:weapon2
wpn_experimental_blaster_green			blacksun_medium_weapon1_s03:weapon1	blacksun_medium_weapon2_s05:weapon2
wpn_experimental_disruptor			blacksun_medium_weapon1_s01:weapon1	blacksun_medium_weapon2_s01:weapon2
wpn_experimental_ioncannon			blacksun_medium_weapon1_s04:weapon1	blacksun_medium_weapon2_s06:weapon2
wpn_fastspray_2000_disruptor			blacksun_medium_weapon1_s04:weapon1	blacksun_medium_weapon2_s04:weapon2
wpn_freitek_cannoneer_mk1			blacksun_medium_weapon1_s01:weapon1	blacksun_medium_weapon2_s01:weapon2
wpn_gyrhil_auto_blaster			blacksun_medium_weapon1_s02:weapon1	blacksun_medium_weapon2_s02:weapon2
wpn_gyrhil_r9x			blacksun_medium_weapon1_s03:weapon1	blacksun_medium_weapon2_s03:weapon2
wpn_haor_chall_speedblaster			blacksun_medium_weapon1_s01:weapon1	blacksun_medium_weapon2_s01:weapon2
wpn_heavy_blaster			blacksun_medium_weapon1_s03:weapon1	blacksun_medium_weapon2_s05:weapon2
wpn_heavy_blaster_green			blacksun_medium_weapon1_s03:weapon1	blacksun_medium_weapon2_s05:weapon2
wpn_heavy_disruptor			blacksun_medium_weapon1_s04:weapon1	blacksun_medium_weapon2_s06:weapon2
wpn_heavy_ioncannon			blacksun_medium_weapon1_s01:weapon1	blacksun_medium_weapon2_s01:weapon2
wpn_hk_modified_scorcher_elite			blacksun_medium_weapon1_s01:weapon1	blacksun_medium_weapon2_s01:weapon2
wpn_hk_scorcher			blacksun_medium_weapon1_s01:weapon1	blacksun_medium_weapon2_s01:weapon2
wpn_hk_scorcher_2			blacksun_medium_weapon1_s01:weapon1	blacksun_medium_weapon2_s01:weapon2
wpn_hk_scorcher_3			blacksun_medium_weapon1_s01:weapon1	blacksun_medium_weapon2_s01:weapon2
wpn_hk_scorcher_advanced			blacksun_medium_weapon1_s01:weapon1	blacksun_medium_weapon2_s01:weapon2
wpn_hk_scorcher_elite			blacksun_medium_weapon1_s01:weapon1	blacksun_medium_weapon2_s01:weapon2
wpn_hk_scorcher_heavy			blacksun_medium_weapon1_s01:weapon1	blacksun_medium_weapon2_s01:weapon2
wpn_hoersch_railgun			blacksun_medium_weapon1_s04:weapon1	blacksun_medium_weapon2_s04:weapon2
wpn_incom_advanced_blaster			blacksun_medium_weapon1_s01:weapon1	blacksun_medium_weapon2_s01:weapon2
wpn_incom_blaster			blacksun_medium_weapon1_s03:weapon1	blacksun_medium_weapon2_s03:weapon2
wpn_incom_disruptor			blacksun_medium_weapon1_s01:weapon1	blacksun_medium_weapon2_s01:weapon2
wpn_incom_elite_quad_blaster			blacksun_medium_weapon1_s01:weapon1	blacksun_medium_weapon2_s01:weapon2
wpn_incom_heavy_blaster			blacksun_medium_weapon1_s01:weapon1	blacksun_medium_weapon2_s01:weapon2
wpn_incom_heavy_quad_blaster			blacksun_medium_weapon1_s01:weapon1	blacksun_medium_weapon2_s01:weapon2
wpn_incom_light_blaster			blacksun_medium_weapon1_s01:weapon1	blacksun_medium_weapon2_s01:weapon2
wpn_incom_quad_blaster			blacksun_medium_weapon1_s03:weapon1	blacksun_medium_weapon2_s03:weapon2
wpn_incom_shredder			blacksun_medium_weapon1_s03:weapon1	blacksun_medium_weapon2_s03:weapon2
wpn_incom_tt13			blacksun_medium_weapon1_s01:weapon1	blacksun_medium_weapon2_s01:weapon2
wpn_incom_tt8			blacksun_medium_weapon1_s01:weapon1	blacksun_medium_weapon2_s01:weapon2
wpn_kdy_pounder_mk1			blacksun_medium_weapon1_s01:weapon1	blacksun_medium_weapon2_s01:weapon2
wpn_koensayr_deluxe_ion_accelerator			blacksun_medium_weapon1_s01:weapon1	blacksun_medium_weapon2_s01:weapon2
wpn_koensayr_ion_accelerator			blacksun_medium_weapon1_s01:weapon1	blacksun_medium_weapon2_s01:weapon2
wpn_koensayr_ion_accelerator_2			blacksun_medium_weapon1_s01:weapon1	blacksun_medium_weapon2_s01:weapon2
wpn_koensayr_ion_accelerator_3			blacksun_medium_weapon1_s01:weapon1	blacksun_medium_weapon2_s01:weapon2
wpn_koensayr_ion_accelerator_advanced			blacksun_medium_weapon1_s01:weapon1	blacksun_medium_weapon2_s01:weapon2
wpn_koensayr_light_disruptor			blacksun_medium_weapon1_s01:weapon1	blacksun_medium_weapon2_s01:weapon2
wpn_koensayr_tuned_light_disruptor			blacksun_medium_weapon1_s01:weapon1	blacksun_medium_weapon2_s01:weapon2
wpn_kse_double_blaster			blacksun_medium_weapon1_s01:weapon1	blacksun_medium_weapon2_s01:weapon2
wpn_kse_light_disruptor			blacksun_medium_weapon1_s01:weapon1	blacksun_medium_weapon2_s01:weapon2
wpn_launcher_concussion_mk1			blacksun_medium_weapon1_s01:weapon1	blacksun_medium_weapon2_s01:weapon2
wpn_launcher_concussion_mk2			blacksun_medium_weapon1_s01:weapon1	blacksun_medium_weapon2_s01:weapon2
wpn_launcher_concussion_mk3			blacksun_medium_weapon1_s01:weapon1	blacksun_medium_weapon2_s01:weapon2
wpn_launcher_imagerec_mk1			blacksun_medium_weapon1_s01:weapon1	blacksun_medium_weapon2_s01:weapon2
wpn_launcher_imagerec_mk2			blacksun_medium_weapon1_s01:weapon1	blacksun_medium_weapon2_s01:weapon2
wpn_launcher_proton_mk1			blacksun_medium_weapon1_s01:weapon1	blacksun_medium_weapon2_s01:weapon2
wpn_launcher_proton_mk2			blacksun_medium_weapon1_s01:weapon1	blacksun_medium_weapon2_s01:weapon2
wpn_launcher_proton_mk3			blacksun_medium_weapon1_s01:weapon1	blacksun_medium_weapon2_s01:weapon2
wpn_launcher_proton_mk4			blacksun_medium_weapon1_s01:weapon1	blacksun_medium_weapon2_s01:weapon2
wpn_launcher_seismic_mk1			blacksun_medium_weapon1_s01:weapon1	blacksun_medium_weapon2_s01:weapon2
wpn_launcher_seismic_mk2			blacksun_medium_weapon1_s01:weapon1	blacksun_medium_weapon2_s01:weapon2
wpn_launcher_seismic_mk3			blacksun_medium_weapon1_s01:weapon1	blacksun_medium_weapon2_s01:weapon2
wpn_launcher_spacebomb_mk1			blacksun_medium_weapon1_s01:weapon1	blacksun_medium_weapon2_s01:weapon2
wpn_launcher_spacebomb_mk2			blacksun_medium_weapon1_s01:weapon1	blacksun_medium_weapon2_s01:weapon2
wpn_light_blaster			blacksun_medium_weapon1_s03:weapon1	blacksun_medium_weapon2_s05:weapon2
wpn_light_blaster_green			blacksun_medium_weapon1_s03:weapon1	blacksun_medium_weapon2_s05:weapon2
wpn_light_disruptor			blacksun_medium_weapon1_s01:weapon1	blacksun_medium_weapon2_s01:weapon2
wpn_light_ioncannon			blacksun_medium_weapon1_s04:weapon1	blacksun_medium_weapon2_s06:weapon2
wpn_mandal_advanced_annihilator			blacksun_medium_weapon1_s01:weapon1	blacksun_medium_weapon2_s01:weapon2
wpn_mandal_annihilator_mk2			blacksun_medium_weapon1_s01:weapon1	blacksun_medium_weapon2_s01:weapon2
wpn_mandal_annilhator_mk1			blacksun_medium_weapon1_s01:weapon1	blacksun_medium_weapon2_s01:weapon2
wpn_mandal_elite_annihilator			blacksun_medium_weapon1_s01:weapon1	blacksun_medium_weapon2_s01:weapon2
wpn_mandal_enhanced_mangler_mk1			blacksun_medium_weapon1_s01:weapon1	blacksun_medium_weapon2_s01:weapon2
wpn_mandal_heavy_annihilator			blacksun_medium_weapon1_s01:weapon1	blacksun_medium_weapon2_s01:weapon2
wpn_mandal_mangler_mk1			blacksun_medium_weapon1_s01:weapon1	blacksun_medium_weapon2_s01:weapon2
wpn_mandal_qv3_disruptor			blacksun_medium_weapon1_s01:weapon1	blacksun_medium_weapon2_s01:weapon2
wpn_mandal_qv5_disruptor			blacksun_medium_weapon1_s01:weapon1	blacksun_medium_weapon2_s01:weapon2
wpn_mandal_super_mangler			blacksun_medium_weapon1_s01:weapon1	blacksun_medium_weapon2_s01:weapon2
wpn_medium_blaster			blacksun_medium_weapon1_s03:weapon1	blacksun_medium_weapon2_s05:weapon2
wpn_medium_blaster_green			blacksun_medium_weapon1_s03:weapon1	blacksun_medium_weapon2_s05:weapon2
wpn_medium_disruptor			blacksun_medium_weapon1_s01:weapon1	blacksun_medium_weapon2_s01:weapon2
wpn_medium_ioncannon			blacksun_medium_weapon1_s04:weapon1	blacksun_medium_weapon2_s06:weapon2
wpn_mining_laser_mk1			blacksun_medium_weapon1_s03:weapon1	blacksun_medium_weapon2_s05:weapon2
wpn_mining_laser_mk2			blacksun_medium_weapon1_s03:weapon1	blacksun_medium_weapon2_s05:weapon2
wpn_mining_laser_mk3			blacksun_medium_weapon1_s03:weapon1	blacksun_medium_weapon2_s05:weapon2
wpn_mission_reward_imperial_cygnus_starblaster			blacksun_medium_weapon1_s01:weapon1	blacksun_medium_weapon2_s01:weapon2
wpn_mission_reward_imperial_sds_boltdriver			blacksun_medium_weapon1_s01:weapon1	blacksun_medium_weapon2_s01:weapon2
wpn_mission_reward_neutral_borstel_disruptor			blacksun_medium_weapon1_s01:weapon1	blacksun_medium_weapon2_s01:weapon2
wpn_mission_reward_neutral_hk_military_blaster			blacksun_medium_weapon1_s01:weapon1	blacksun_medium_weapon2_s01:weapon2
wpn_mission_reward_neutral_mandal_light_blaster			blacksun_medium_weapon1_s01:weapon1	blacksun_medium_weapon2_s01:weapon2
wpn_mission_reward_rebel_incom_tricannon			blacksun_medium_weapon1_s01:weapon1	blacksun_medium_weapon2_s01:weapon2
wpn_mission_reward_rebel_taim_ion_driver			blacksun_medium_weapon1_s01:weapon1	blacksun_medium_weapon2_s01:weapon2
wpn_moncal_light_blaster			blacksun_medium_weapon1_s01:weapon1	blacksun_medium_weapon2_s01:weapon2
wpn_prototype			blacksun_medium_weapon1_s01:weapon1	blacksun_medium_weapon2_s01:weapon2
wpn_prototype_tie			blacksun_medium_weapon1_s01:weapon1	blacksun_medium_weapon2_s01:weapon2
wpn_rendili_advanced			blacksun_medium_weapon1_s01:weapon1	blacksun_medium_weapon2_s01:weapon2
wpn_rendili_fr13_disruptor			blacksun_medium_weapon1_s01:weapon1	blacksun_medium_weapon2_s01:weapon2
wpn_rendili_fr9_disruptor			blacksun_medium_weapon1_s01:weapon1	blacksun_medium_weapon2_s01:weapon2
wpn_rendili_sc3_disruptor			blacksun_medium_weapon1_s01:weapon1	blacksun_medium_weapon2_s01:weapon2
wpn_rendili_sc8_disruptor			blacksun_medium_weapon1_s01:weapon1	blacksun_medium_weapon2_s01:weapon2
wpn_rss_imperial_cannon			blacksun_medium_weapon1_s01:weapon1	blacksun_medium_weapon2_s01:weapon2
wpn_sds_elite			blacksun_medium_weapon1_s01:weapon1	blacksun_medium_weapon2_s01:weapon2
wpn_sds_heavy_imperial_spc_forces_cannon			blacksun_medium_weapon1_s01:weapon1	blacksun_medium_weapon2_s01:weapon2
wpn_sds_imperial_blaster_1			blacksun_medium_weapon1_s01:weapon1	blacksun_medium_weapon2_s01:weapon2
wpn_sds_imperial_blaster_2			blacksun_medium_weapon1_s01:weapon1	blacksun_medium_weapon2_s01:weapon2
wpn_sds_imperial_special_forces_cannon			blacksun_medium_weapon1_s01:weapon1	blacksun_medium_weapon2_s01:weapon2
wpn_sds_modified_elite			blacksun_medium_weapon1_s01:weapon1	blacksun_medium_weapon2_s01:weapon2
wpn_seinar_disruptor			blacksun_medium_weapon1_s01:weapon1	blacksun_medium_weapon2_s01:weapon2
wpn_seinar_ion_cannon			blacksun_medium_weapon1_s04:weapon1	blacksun_medium_weapon2_s04:weapon2
wpn_seinar_linked_cannon			blacksun_medium_weapon1_s04:weapon1	blacksun_medium_weapon2_s04:weapon2
wpn_seinar_ls1			blacksun_medium_weapon1_s03:weapon1	blacksun_medium_weapon2_s03:weapon2
wpn_seinar_ls72			blacksun_medium_weapon1_s03:weapon1	blacksun_medium_weapon2_s03:weapon2
wpn_sfs_elite			blacksun_medium_weapon1_s01:weapon1	blacksun_medium_weapon2_s01:weapon2
wpn_sfs_imperial_blaster_1			blacksun_medium_weapon1_s01:weapon1	blacksun_medium_weapon2_s01:weapon2
wpn_sfs_imperial_blaster_2			blacksun_medium_weapon1_s01:weapon1	blacksun_medium_weapon2_s01:weapon2
wpn_sfs_imperial_blaster_3			blacksun_medium_weapon1_s01:weapon1	blacksun_medium_weapon2_s01:weapon2
wpn_sfs_imperial_blaster_4			blacksun_medium_weapon1_s01:weapon1	blacksun_medium_weapon2_s01:weapon2
wpn_sfs_imperial_special_forces_blaster			blacksun_medium_weapon1_s01:weapon1	blacksun_medium_weapon2_s01:weapon2
wpn_sfs_improved_imperial_blaster_2			blacksun_medium_weapon1_s01:weapon1	blacksun_medium_weapon2_s01:weapon2
wpn_slayn_deluxe_light_ioncannon			blacksun_medium_weapon1_s01:weapon1	blacksun_medium_weapon2_s01:weapon2
wpn_slayn_ioncannon			blacksun_medium_weapon1_s04:weapon1	blacksun_medium_weapon2_s04:weapon2
wpn_slayn_light_ioncannon			blacksun_medium_weapon1_s01:weapon1	blacksun_medium_weapon2_s01:weapon2
wpn_subpro_advanced_cannon			blacksun_medium_weapon1_s01:weapon1	blacksun_medium_weapon2_s01:weapon2
wpn_subpro_improved_light_ioncannon			blacksun_medium_weapon1_s01:weapon1	blacksun_medium_weapon2_s01:weapon2
wpn_subpro_light_ioncannon			blacksun_medium_weapon1_s01:weapon1	blacksun_medium_weapon2_s01:weapon2
wpn_subpro_modified_tricannon			blacksun_medium_weapon1_s01:weapon1	blacksun_medium_weapon2_s01:weapon2
wpn_subpro_tricannon			blacksun_medium_weapon1_s01:weapon1	blacksun_medium_weapon2_s01:weapon2
wpn_subpro_tripleblaster			blacksun_medium_weapon1_s04:weapon1	blacksun_medium_weapon2_s04:weapon2
wpn_subpro_tripleblaster_mark2			blacksun_medium_weapon1_s04:weapon1	blacksun_medium_weapon2_s04:weapon2
wpn_subpro_tripleblaster_mark3			blacksun_medium_weapon1_s01:weapon1	blacksun_medium_weapon2_s01:weapon2
wpn_taim_elite			blacksun_medium_weapon1_s01:weapon1	blacksun_medium_weapon2_s01:weapon2
wpn_taim_heavy_laser			blacksun_medium_weapon1_s03:weapon1	blacksun_medium_weapon2_s03:weapon2
wpn_taim_ix4			blacksun_medium_weapon1_s03:weapon1	blacksun_medium_weapon2_s03:weapon2
wpn_taim_ix5			blacksun_medium_weapon1_s01:weapon1	blacksun_medium_weapon2_s01:weapon2
wpn_taim_kx5			blacksun_medium_weapon1_s03:weapon1	blacksun_medium_weapon2_s03:weapon2
wpn_taim_kx8			blacksun_medium_weapon1_s01:weapon1	blacksun_medium_weapon2_s01:weapon2
wpn_taim_kx9			blacksun_medium_weapon1_s04:weapon1	blacksun_medium_weapon2_s04:weapon2
wpn_tieadvanced_blaster			blacksun_medium_weapon1_s01:weapon1	blacksun_medium_weapon2_s01:weapon2
wpn_tractor_pulse_gun			blacksun_medium_weapon1_s03:weapon1	blacksun_medium_weapon2_s05:weapon2
wpn_trandoshan_fg1a			blacksun_medium_weapon1_s04:weapon1	blacksun_medium_weapon2_s04:weapon2
wpn_vengeance_ion_cannon			blacksun_medium_weapon1_s04:weapon1	blacksun_medium_weapon2_s04:weapon2
wpn_vulcan_cannon			blacksun_medium_weapon1_s04:weapon1	blacksun_medium_weapon2_s04:weapon2
wpn_z95_basic			blacksun_medium_weapon1_s01:weapon1	blacksun_medium_weapon2_s01:weapon2
wpn_z95_blaster			blacksun_medium_weapon1_s01:weapon1	blacksun_medium_weapon2_s01:weapon2
wpn_heavy_ionic_pulse_weapon			blacksun_medium_weapon1_s04:weapon1	blacksun_medium_weapon2_s06:weapon2
wpn_crafted_mining_laser_mk1			blacksun_medium_weapon1_s03:weapon1	blacksun_medium_weapon2_s05:weapon2
wpn_crafted_mining_laser_mk2			blacksun_medium_weapon1_s03:weapon1	blacksun_medium_weapon2_s05:weapon2
wpn_crafted_mining_laser_mk3			blacksun_medium_weapon1_s03:weapon1	blacksun_medium_weapon2_s05:weapon2
wpn_crafted_mining_laser_elite			blacksun_medium_weapon1_s03:weapon1	blacksun_medium_weapon2_s05:weapon2
wpn_prototype			blacksun_medium_weapon1_s03:weapon1	blacksun_medium_weapon2_s05:weapon2
wpn_ionic_pulse_weapon			blacksun_medium_weapon1_s04:weapon1	blacksun_medium_weapon2_s06:weapon2
wpn_reward_seinar_elite			blacksun_medium_weapon1_s03:weapon1	blacksun_medium_weapon2_s05:weapon2
wpn_kessel_imperial_rendili_prototype_x			blacksun_medium_weapon1_s03:weapon1	blacksun_medium_weapon2_s05:weapon2
wpn_kessel_imperial_sds_experimental_secret_ops			blacksun_medium_weapon1_s03:weapon1	blacksun_medium_weapon2_s05:weapon2
wpn_kessel_imperial_sfs_elite_ops			blacksun_medium_weapon1_s03:weapon1	blacksun_medium_weapon2_s05:weapon2
wpn_kessel_rebel_incom_dualcore_flashcannon			blacksun_medium_weapon1_s03:weapon1	blacksun_medium_weapon2_s05:weapon2
wpn_kessel_rebel_riiz_combine_slammer_cannon			blacksun_medium_weapon1_s03:weapon1	blacksun_medium_weapon2_s05:weapon2
wpn_kessel_rebel_unknown_rayslinger			blacksun_medium_weapon1_s03:weapon1	blacksun_medium_weapon2_s05:weapon2
wpn_reward_incom_elite			blacksun_medium_weapon1_s03:weapon1	blacksun_medium_weapon2_s05:weapon2
wpn_reward_seinar_elite			blacksun_medium_weapon1_s03:weapon1	blacksun_medium_weapon2_s05:weapon2
wpn_reward_slayn_elite			blacksun_medium_weapon1_s03:weapon1	blacksun_medium_weapon2_s05:weapon2
wpn_reward_subpro_elite			blacksun_medium_weapon1_s03:weapon1	blacksun_medium_weapon2_s05:weapon2
wpn_reward_taim_elite			blacksun_medium_weapon1_s03:weapon1	blacksun_medium_weapon2_s05:weapon2
wpn_nova_ioncannon			blacksun_medium_weapon1_s03:weapon1	blacksun_medium_weapon2_s05:weapon2
wpn_orion_disruptor			blacksun_medium_weapon1_s03:weapon1	blacksun_medium_weapon2_s05:weapon2
