objid	container	server_template_crc	cell_index	px	py	pz	qw	qx	qy	qz	scripts	objvars
i	i	h	i	f	f	f	f	f	f	f	s	p
100322	0	object/static/structure/naboo/bridge_naboo_theed_style_1.iff	0	580.823	0.29649	2015.99	0.999388	0	0.0349929	0		$|
106319	0	object/static/structure/naboo/streetlamp_naboo_theed_style_1.iff	0	604.565	6	2023.54	1	0	0	0		$|
106325	0	object/static/structure/naboo/streetlamp_naboo_theed_style_1.iff	0	757.083	6	2019.65	1	0	0	0		$|
106330	0	object/static/structure/naboo/streetlamp_naboo_theed_style_1.iff	0	800.988	6.22136	1989.16	0.894851	0	-0.446365	0		$|
167343	0	object/static/structure/naboo/seawall_straight_naboo_theed_style_4.iff	0	797.727	0.162507	1986.29	0.434965	0	0.900447	0		$|
167346	0	object/static/structure/naboo/seawall_straight_naboo_theed_style_4.iff	0	817.616	0.162507	2011.36	0.434965	0	0.900447	0		$|
167347	0	object/static/structure/naboo/seawall_intersect_naboo_theed_style_1.iff	0	797.965	0	1985.78	0.900447	0	-0.434965	0		$|
167348	0	object/static/structure/naboo/seawall_straight_naboo_theed_style_4.iff	0	837.488	0.162507	2036.42	0.434965	0	0.900447	0		$|
167349	0	object/static/structure/naboo/seawall_rocks_naboo_theed_style_1.iff	0	777.677	0.364457	1970.22	0.37166	0	0.928369	0		$|
167358	0	object/static/structure/naboo/seawall_rocks_naboo_theed_style_1.iff	0	747.078	0.02105	1932.2	0.435683	0	0.9001	0		$|
215316	0	object/static/structure/naboo/fountain_naboo_style_1.iff	0	751.093	6	1969.82	1	0	0	0		$|
908863	0	object/static/particle/particle_seagulls_flock.iff	0	615.414	6	1995.38	1	0	0	0		$|
1340374	0	object/static/installation/mockup_farm_flora_style_1.iff	0	1133.07	6	1957.06	1	0	0	0		$|
1340375	0	object/static/installation/mockup_farm_creature_style_1.iff	0	1115.99	6	1970.92	0.71791	0	0.696136	0		$|
1340376	0	object/static/structure/naboo/nboo_imprv_lattice_wall_long_s01.iff	0	1110.44	6	1981.49	0.420688	0	0.907205	0		$|
1340377	0	object/static/structure/naboo/nboo_imprv_lattice_wall_long_s01.iff	0	1104.63	6	1974.62	0.420688	0	0.907205	0		$|
1340378	0	object/static/structure/naboo/nboo_imprv_lattice_wall_long_s01.iff	0	1104.57	6	1968.36	0.938963	0	0.344019	0		$|
1340379	0	object/static/structure/naboo/nboo_imprv_lattice_wall_long_s01.iff	0	1111.44	6	1962.55	0.938963	0	0.344019	0		$|
1340380	0	object/static/structure/naboo/nboo_imprv_lattice_wall_long_s01.iff	0	1116.73	6	1981.41	-0.344019	0	0.938962	0		$|
1340381	0	object/static/structure/naboo/nboo_imprv_lattice_wall_long_s01.iff	0	1118.31	6	1956.73	0.938963	0	0.344019	0		$|
1340382	0	object/static/structure/naboo/nboo_imprv_lattice_wall_long_s01.iff	0	1144.03	6	1953.07	0.420688	0	0.907205	0		$|
1340383	0	object/static/structure/naboo/nboo_imprv_lattice_wall_long_s01.iff	0	1138.21	6	1946.2	0.420688	0	0.907205	0		$|
1340384	0	object/static/structure/naboo/nboo_imprv_lattice_wall_long_s01.iff	0	1132.05	6	1945.1	-0.34402	0	0.938963	0		$|
1340385	0	object/static/structure/naboo/nboo_imprv_lattice_wall_long_s01.iff	0	1125.18	6	1950.92	-0.34402	0	0.938963	0		$|
1340386	0	object/static/structure/naboo/nboo_imprv_lattice_wall_long_s01.iff	0	1142.91	6	1959.26	0.938962	0	0.34402	0		$|
1340387	0	object/static/structure/naboo/nboo_imprv_pillar_lattice_s01.iff	0	1121.36	6	1954.15	0.938962	0	0.34402	0		$|
1340388	0	object/static/creature/naboo_gualama.iff	0	1122.31	6	1966.2	0.904752	0	0.42594	0		$|
1340390	0	object/static/creature/naboo_kaadu.iff	0	1117.67	6	1962.53	0.609791	0	0.792563	0		$|
1340391	0	object/static/structure/general/data_terminal_free_s1.iff	0	1129.86	6	1960.89	0.968912	0	-0.247404	0		$|
1340393	0	object/static/item/item_container_organic_food.iff	0	1127.43	6	1958.15	0.998201	0	-0.059964	0		$|
1340394	0	object/static/item/item_container_organic_food.iff	0	1126.95	6	1958.43	1	0	0	0		$|
1340395	0	object/static/item/item_container_organic_hide.iff	0	1125.4	6	1959	0.980067	0	0.198669	0		$|
1340396	0	object/static/item/item_container_organic_hide.iff	0	1124.79	6	1959.6	0.922997	0	0.384808	0		$|
1340397	0	object/static/item/item_container_organic_food.iff	0	1127.96	6	1958.46	0.958244	0	-0.285952	0		$|
1544391	0	object/static/structure/naboo/elevated_walkway_cap_s01.iff	0	981.993	6	1720.56	0.92388	0	-0.382683	0		$|
1544392	0	object/static/structure/naboo/elevated_walkway_cap_s01.iff	0	888.961	6	1628.55	0.92388	0	-0.382683	0		$|
1677405	0	object/static/structure/naboo/bridge_naboo_theed_style_1.iff	0	464.829	0.228118	2016.29	0.707108	0	0.707105	0		$|
1677438	0	object/static/structure/naboo/seawall_straight_naboo_theed_style_4.iff	0	559.181	0.049499	2030.9	0.678265	0	0.734817	0		$|
1677468	0	object/static/structure/naboo/planter_naboo_theed_style_2.iff	0	520.375	6	2023.03	0.884675	0	0.466208	0		$|
1677485	0	object/static/structure/naboo/enclosed_walkway_s02.iff	0	339.084	6	2009.71	0.707106	0	0.707108	0		$|
1677487	0	object/static/structure/naboo/bridge_stairs_s01.iff	0	339.079	6	1997.49	-0.707107	0	0.707107	0		$|
1677488	0	object/static/structure/naboo/bridge_stairs_s01.iff	0	339.087	6	2038.39	0.707107	0	0.707107	0		$|
1677489	0	object/static/structure/naboo/enclosed_walkway_s02.iff	0	339.083	6	2026.17	-0.707107	0	0.707107	0		$|
1692086	0	object/building/naboo/guild_university_naboo_style_01.iff	0	692	6	1948.5	1	0	0	0		$|
1692087	1692086	object/cell/cell.iff	1	0	0	0	1	1.401298E-45	0	0		$|
1692088	1692086	object/cell/cell.iff	2	0	0	0	1	2.802597E-45	0	0		$|
1692089	1692086	object/cell/cell.iff	3	0	0	0	1	4.203895E-45	0	0		$|
1692090	1692086	object/cell/cell.iff	4	0	0	0	1	5.605194E-45	0	0		$|
1692091	1692086	object/cell/cell.iff	5	0	0	0	1	7.006492E-45	0	0		$|
1692092	1692086	object/cell/cell.iff	6	0	0	0	1	8.407791E-45	0	0		$|
1692093	1692086	object/cell/cell.iff	7	0	0	0	1	9.809089E-45	0	0		$|
1692094	1692086	object/cell/cell.iff	8	0	0	0	1	1.121039E-44	0	0		$|
1692095	1692086	object/cell/cell.iff	9	0	0	0	1	1.261169E-44	0	0		$|
1697350	0	object/building/naboo/cloning_facility_naboo.iff	0	1268.64	6	1981.96	0.907837	0	-0.419322	0		$|
1697351	1697350	object/cell/cell.iff	1	0	0	0	1	1.401298E-45	0	0		$|
1697352	1697350	object/cell/cell.iff	2	0	0	0	1	2.802597E-45	0	0		$|
1697353	1697350	object/cell/cell.iff	3	0	0	0	1	4.203895E-45	0	0		$|
1697354	1697350	object/cell/cell.iff	4	0	0	0	1	5.605194E-45	0	0		$|
1697355	1697350	object/cell/cell.iff	5	0	0	0	1	7.006492E-45	0	0		$|
1697356	1697350	object/cell/cell.iff	6	0	0	0	1	8.407791E-45	0	0		$|
1697357	0	object/building/naboo/shuttleport_naboo.iff	0	1154.39	6	2042.93	0.907837	0	-0.419322	0	structure.municipal.starport:planet_map.map_loc	travel.cost|0|200|travel.ground_time|0|300|travel.is_shuttleport|0|1|travel.point_name|4|Theed Shuttleport A|travel.shuttle_available|0|1|travel.version|0|3|$|
1714352	0	object/static/structure/naboo/bridge_stairs_s01.iff	0	886.249	6	1625.84	0.924909	0	-0.380188	0		$|
1714353	0	object/static/structure/naboo/bridge_stairs_s01.iff	0	984.711	6	1723.24	0.380188	0	0.924909	0		$|
1714354	0	object/static/structure/naboo/enclosed_walkway_s02.iff	0	976.179	6	1714.8	0.924909	0	-0.380188	0		$|
1714355	0	object/static/structure/naboo/enclosed_walkway_s02.iff	0	941.345	6	1680.34	0.924909	0	-0.380188	0		$|
1714356	0	object/static/structure/naboo/enclosed_walkway_s02.iff	0	929.616	6	1668.74	0.924909	0	-0.380188	0		$|
1714357	0	object/static/structure/naboo/enclosed_walkway_s02.iff	0	952.719	6	1691.59	0.924909	0	-0.380188	0		$|
1714358	0	object/static/structure/naboo/enclosed_walkway_s02.iff	0	906.155	6	1645.53	0.924909	0	-0.380188	0		$|
1714359	0	object/static/structure/naboo/enclosed_walkway_s02.iff	0	964.449	6	1703.2	0.924909	0	-0.380188	0		$|
1714360	0	object/static/structure/naboo/enclosed_walkway_s02.iff	0	894.78	6	1634.28	0.924909	0	-0.380188	0		$|
1714361	0	object/static/structure/naboo/enclosed_walkway_s02.iff	0	917.884	6	1657.13	0.924909	0	-0.380188	0		$|
1714527	0	object/static/structure/general/planter_generic_style_4.iff	0	1249.13	6	1963.84	0.417595	0	0.908633	0		$|
1714592	0	object/static/structure/general/planter_generic_style_1.iff	0	1232.22	6	1976.68	1	0	0	0		$|
1714602	0	object/static/structure/general/planter_generic_style_1.iff	0	1221.3	6	1909.58	-0.010796	0	0.999942	0		$|
1714607	0	object/static/structure/general/planter_generic_style_4.iff	0	1311.67	6	2009.43	0.741831	0	0.670587	0		$|
1714608	0	object/static/structure/general/planter_generic_style_1.iff	0	1317.35	6	2022.92	0.963771	0	-0.266731	0		$|
1714610	0	object/static/structure/general/planter_generic_style_2.iff	0	1191.55	6	1931.47	0.456631	0	0.889657	0		$|
1714612	0	object/static/structure/general/planter_generic_style_1.iff	0	1323.88	6	2044.41	0.99995	0	-0.01	0		$|
1714614	0	object/static/structure/general/planter_generic_style_2.iff	0	1331.85	6	2037.33	-0.000796419	0	1	0		$|
1714635	0	object/static/structure/general/planter_generic_style_1.iff	0	1327.82	6	2025.85	-0.37166	0	0.928369	0		$|
1714636	0	object/static/structure/general/planter_generic_style_1.iff	0	1311	6	2030.52	0.504847	0	0.86321	0		$|
1714643	0	object/static/structure/naboo/fountain_naboo_style_1.iff	0	1228.55	6	2045.02	0.935897	0	0.352274	0		$|
1717606	0	object/static/structure/general/planter_generic_style_1.iff	0	651.123	6	1958.99	0.246632	0	0.969109	0		$|
1717609	0	object/static/structure/general/planter_generic_style_1.iff	0	655.356	6	1953.43	1	0	0	0		$|
1717610	0	object/static/structure/general/planter_generic_style_1.iff	0	659.605	6	1948.79	0.828149	0	-0.560509	0		$|
1717611	0	object/static/structure/general/planter_generic_style_1.iff	0	664.158	6	1943.73	0.104015	0	0.994576	0		$|
1717612	0	object/static/structure/general/planter_generic_style_1.iff	0	669.112	6	1939.14	0.946042	0	-0.324043	0		$|
1785360	0	object/static/structure/naboo/seawall_intersect_naboo_theed_style_2.iff	0	558.231	0.190621	2031.95	0.338946	0	0.940806	0		$|
1785363	0	object/static/structure/naboo/seawall_intersect_naboo_theed_style_2.iff	0	555.833	-0.571365	2028.42	0.674876	0	0.737931	0		$|
1785547	0	object/static/structure/naboo/seawall_rocks_naboo_theed_style_1.iff	0	733.463	-0.792762	1913.55	0.426612	-0.013435	0.90431	-0.00666968		$|
1785548	0	object/static/structure/naboo/seawall_rocks_naboo_theed_style_1.iff	0	702.062	-1.41702	1879.08	0.385312	-0.0322875	0.922123	-0.0134914		$|
1785549	0	object/static/structure/naboo/seawall_rocks_naboo_theed_style_1.iff	0	717.455	0.780011	1896.46	0.390079	0.0184137	0.920564	0.00780261		$|
1785551	0	object/static/structure/naboo/seawall_intersect_naboo_theed_style_1.iff	0	703.882	0	1874.3	-0.514819	0	0.857299	0		$|
1785724	0	object/tangible/terminal/terminal_mission.iff	0	702.226	8.49514	1966.46	1	0	0	0		$|
1785725	0	object/tangible/terminal/terminal_mission.iff	0	681.854	8.422	1966.21	1	0	0	0		$|
1805378	0	object/static/structure/naboo/streetlamp_naboo_theed_style_1.iff	0	1218.14	6	1973.07	0.904751	0	-0.42594	0		$|
1805379	0	object/static/structure/naboo/streetlamp_naboo_theed_style_1.iff	0	1288.53	6	2040.85	0.911039	0	-0.412321	0		$|
1805382	0	object/static/structure/naboo/streetlamp_naboo_theed_style_1.iff	0	1257.57	6	2003.69	0.908965	0	-0.416871	0		$|
1805386	0	object/static/structure/naboo/streetlamp_naboo_theed_style_1.iff	0	1102.41	6	2034.52	0.90687	0	-0.421411	0		$|
1805387	0	object/static/structure/naboo/streetlamp_naboo_theed_style_1.iff	0	1178.62	6	1959.39	0.911039	0	-0.412321	0		$|
1805389	0	object/static/structure/naboo/streetlamp_naboo_theed_style_1.iff	0	1495.77	6	2012.27	0.891568	0	-0.452887	0		$|
1805390	0	object/static/structure/naboo/streetlamp_naboo_theed_style_1.iff	0	1515.23	6	2045.06	0.882333	0	-0.470626	0		$|
1805393	0	object/static/structure/naboo/streetlamp_naboo_theed_style_1.iff	0	1516.72	6	1998.3	0.886995	0	-0.46178	0		$|
1805398	0	object/static/structure/naboo/streetlamp_naboo_theed_style_1.iff	0	1427.55	6	1904.14	0.884675	0	-0.466209	0		$|
1805400	0	object/static/structure/naboo/streetlamp_naboo_theed_style_1.iff	0	1481.56	6	1873.9	0.911039	0	-0.412321	0		$|
1805401	0	object/static/structure/naboo/streetlamp_naboo_theed_style_1.iff	0	1519.83	6	1943.41	0.893821	0	-0.448423	0		$|
1805402	0	object/static/structure/naboo/streetlamp_naboo_theed_style_1.iff	0	1476.02	6	1980.9	0.888145	0	-0.459564	0		$|
1805403	0	object/static/structure/naboo/streetlamp_naboo_theed_style_1.iff	0	1543.4	6	1956.43	0.886995	0	-0.46178	0		$|
1805443	0	object/static/structure/naboo/streetlamp_naboo_theed_style_1.iff	0	335.796	6	2043.35	0.99995	0	0.00999985	0		$|
3145353	0	object/static/structure/naboo/elevated_walkway_cap_s01.iff	0	339.062	6	2001.4	0.707109	0	-0.707105	0		$|
3145354	0	object/static/structure/naboo/elevated_walkway_cap_s01.iff	0	339.084	6	2034.65	0.707118	0	-0.707095	0		$|
3145435	0	object/static/structure/general/rock_mossy_big_a1.iff	0	718.553	6	1893.89	1	0	0	0		$|
3955412	0	object/static/structure/naboo/elevated_walkway_cap_s01.iff	0	1232.16	6	1949.23	0.938444	0	0.345432	0		$|
4015362	0	object/tangible/terminal/terminal_mission_rebel.iff	0	1197.84	6	1953.07	0.42666	0	0.904412	0		$|
5125558	0	object/static/structure/naboo/elevated_walkway_s03.iff	0	635.578	-1.08883	1858.98	0.727999	0	-0.685578	0		$|
5125560	0	object/static/structure/naboo/elevated_walkway_s03.iff	0	637.437	-1.08883	1889.93	0.727999	0	-0.685578	0		$|
5125561	0	object/static/structure/naboo/elevated_walkway_s03.iff	0	633.719	-1.08883	1828.04	0.727999	0	-0.685578	0		$|
5125562	0	object/static/structure/naboo/elevated_walkway_s03.iff	0	639.295	-1.08883	1920.87	0.727999	0	-0.685578	0		$|
5125563	0	object/static/structure/naboo/elevated_walkway_cap_s01.iff	0	640.254	-1.11354	1936.84	0.727999	0	-0.685578	0		$|
5125564	0	object/static/structure/naboo/elevated_walkway_s03.iff	0	627.592	-1.08946	1859.46	0.727999	0	-0.685578	0		$|
5125565	0	object/static/structure/naboo/elevated_walkway_s03.iff	0	629.451	-1.08946	1890.41	0.727999	0	-0.685578	0		$|
5125566	0	object/static/structure/naboo/elevated_walkway_s03.iff	0	625.733	-1.08946	1828.52	0.727999	0	-0.685578	0		$|
5125567	0	object/static/structure/naboo/elevated_walkway_s03.iff	0	631.31	-1.08946	1921.35	0.727999	0	-0.685578	0		$|
5125568	0	object/static/structure/naboo/elevated_walkway_cap_s01.iff	0	632.27	-1.11417	1937.32	0.727999	0	-0.685578	0		$|
5555490	0	object/static/structure/naboo/streetlamp_naboo_theed_style_1.iff	0	549.311	6	2026.7	1	0	0	0		$|
5555492	0	object/static/structure/general/streetlamp_large_style_02.iff	0	676.404	6	2033.41	0.707108	0	-0.707106	0		$|
5555493	0	object/static/structure/naboo/streetlamp_naboo_theed_style_1.iff	0	716.828	6	1996.38	1	0	0	0		$|
5555503	0	object/static/structure/general/streetlamp_small_blue_style_01.iff	0	751.072	8.79752	1969.81	1	0	0	0		$|
5555508	0	object/static/structure/naboo/streetlamp_naboo_theed_style_1.iff	0	704.097	6	1878.63	1	0	0	0		$|
5625354	0	object/static/structure/naboo/streetlamp_naboo_theed_style_1.iff	0	1221.89	6	1936.99	0.904751	0	-0.42594	0		$|
5625363	0	object/static/structure/general/streetlamp_small_blue_style_01.iff	0	1228.56	8.71956	2045.01	0.917121	0	0.398609	0		$|
5695352	0	object/static/structure/naboo/streetlamp_naboo_theed_style_1.iff	0	474.055	6.08404	1993.14	1	0	0	0		$|
5695357	0	object/static/structure/naboo/streetlamp_naboo_theed_style_1.iff	0	342.377	6	1989.75	1	0	0	0		$|
5695364	0	object/static/structure/naboo/streetlamp_naboo_theed_style_1.iff	0	830.821	6.24427	2026.78	0.89927	0	-0.437394	0		$|
6015357	0	object/static/structure/naboo/streetlamp_naboo_theed_style_1.iff	0	1458.33	6	1897.3	0.952334	0	0.305059	0		$|
6336426	0	object/tangible/terminal/terminal_mission_entertainer.iff	0	708.271	6	1981.56	1	0	0	0		$|
6336428	0	object/tangible/terminal/terminal_mission_artisan.iff	0	705.967	6	1981.37	1	0	0	0		$|
6336430	0	object/tangible/terminal/terminal_mission_scout.iff	0	703.88	6	1981.43	1	0	0	0		$|
6336432	0	object/tangible/terminal/terminal_mission_entertainer.iff	0	675.437	6	1981.66	1	0	0	0		$|
6336434	0	object/tangible/terminal/terminal_mission_artisan.iff	0	677.232	6	1981.46	1	0	0	0		$|
6336436	0	object/tangible/terminal/terminal_mission_scout.iff	0	679.636	6	1981.54	1	0	0	0		$|
6336446	0	object/static/structure/naboo/poi_nboo_tent_small.iff	0	1110.27	6.15764	2045.19	0.908723	-0.0248052	-0.416622	-0.00587716		$|
6645407	0	object/soundobject/soundobject_city_crowd_small.iff	0	655.169	6	2035.2	1	0	0	0		$|
6645788	0	object/static/structure/naboo/seawall_rocks_naboo_theed_style_1.iff	0	763.403	-0.135956	1950.24	0.435683	0	0.9001	0		$|
6695354	0	object/static/structure/naboo/enclosed_walkway_s02.iff	0	1380.94	5.94048	2042.7	0.938443	0	0.345433	0		$|
6695355	0	object/static/structure/naboo/enclosed_walkway_s02.iff	0	1393.91	5.92777	2031.66	0.938443	0	0.345433	0		$|
6695356	0	object/static/structure/naboo/elevated_walkway_cap_s01.iff	0	1387.43	5.92777	2037.21	0.938444	0	0.345433	0		$|
6695359	0	object/static/structure/naboo/elevated_walkway_cap_s01.iff	0	1400.44	5.92777	2026.12	0.938444	0	0.345433	0		$|
6695360	0	object/static/structure/naboo/enclosed_walkway_s02.iff	0	1432.95	5.9639	1998.38	0.938444	0	0.345433	0		$|
6695361	0	object/static/structure/naboo/enclosed_walkway_s02.iff	0	1419.98	5.92471	2009.5	-0.345433	0	0.938444	0		$|
6695362	0	object/static/structure/naboo/enclosed_walkway_s02.iff	0	1407.02	5.92777	2020.54	-0.345433	0	0.938444	0		$|
6695363	0	object/static/structure/naboo/elevated_walkway_cap_s01.iff	0	1413.49	5.92715	2014.99	-0.345432	0	0.938444	0		$|
6695364	0	object/static/structure/naboo/elevated_walkway_cap_s01.iff	0	1426.45	5.89722	2003.94	-0.345432	0	0.938444	0		$|
6695365	0	object/static/structure/naboo/elevated_walkway_cap_s01.iff	0	1439.45	5.89607	1992.84	-0.345432	0	0.938444	0		$|
6695366	0	object/static/structure/naboo/bridge_stairs_s02.iff	0	1442.85	5.8778	1989.94	-0.348337	0	0.937369	0		$|
6695486	0	object/soundobject/soundobject_city_crowd_small.iff	0	1485.48	6	1981.66	1	0	0	0		$|
6695487	0	object/soundobject/soundobject_city_crowd_small.iff	0	1516.85	6	2035.16	1	0	0	0		$|
7265357	0	object/soundobject/soundobject_city_crowd_small.iff	0	757.448	6	1978.2	1	0	0	0		$|
8085527	0	object/static/flora/flora_decd_scorched_massassi.iff	0	1503.03	1.67664	167.066	0.72827	0	0	0.68529		$|
8085532	0	object/static/flora/flora_bush_yavin_blueleaf.iff	0	1505.78	4.40862	163.331	1	0	0	0		$|
8085534	0	object/static/flora/flora_bush_yavin_blueleaf.iff	0	1499.6	4.12178	164.049	1	0	0	0		$|
8085536	0	object/static/flora/flora_bush_yavin_blueleaf.iff	0	1490.33	3.15197	165.192	1	0	0	0		$|
8085537	0	object/static/flora/flora_bush_yavin_blueleaf.iff	0	1485.53	4.42145	168.652	0.99875	0	0	0.0499791		$|
8085540	0	object/static/flora/flora_flower_all_bauhin.iff	0	1503.08	5.6052	165.377	1	0	0	0		$|
8085546	0	object/static/flora/flora_bush_yavin_blueleaf.iff	0	1470.7	3.20559	169.75	1	0	0	0		$|
8085550	0	object/static/flora/flora_flower_all_bauhin.iff	0	1474.91	2.61472	170.582	1	0	0	0		$|
8085551	0	object/static/flora/flora_flower_all_bauhin.iff	0	1446.66	2.22792	163.317	1	0	0	0		$|
8085552	0	object/static/flora/flora_flower_all_bauhin.iff	0	1505.84	6.36944	168.996	1	0	0	0		$|
8085555	0	object/static/structure/general/streetlamp_small_style_01.iff	0	1490.34	2.71544	170.904	1	0	0	0		$|
8085558	0	object/static/flora/flora_bush_yavin_blueleaf.iff	0	1490.53	3.18424	171.438	0.99875	0	0	0.049979		$|
8085559	0	object/static/structure/general/streetlamp_small_style_01.iff	0	1447.33	2.78477	170.911	1	0	0	0		$|
8085560	0	object/static/flora/flora_bush_yavin_blueleaf.iff	0	1447.42	3.13271	170.967	1	0	0	0		$|
8455369	0	object/static/structure/naboo/gungan_damaged_wide_arch_s01.iff	0	56.498	7.91194	1792.81	0.934124	0	0	0.356949		$|
8455370	0	object/static/structure/naboo/gungan_pillar_damaged_s01.iff	0	49.0356	8.84197	1793.95	1	0	0	0		$|
8455371	0	object/static/structure/naboo/gungan_pillar_damaged_s01.iff	0	48.9941	8.74747	1789.44	0.71249	-0.160625	-0.674607	0.107065		$|
8455372	0	object/static/structure/naboo/gungan_pillar_ruined_s01.iff	0	52.7754	8.45002	1794.9	-0.0585902	-0.188528	0.980284	-0.00825665		$|
8455373	0	object/static/structure/naboo/gungan_pillar_ruined_s01.iff	0	52.6138	7.9972	1790.36	0.825294	0.00129632	-0.00991546	0.564614		$|
8455374	0	object/static/structure/naboo/gungan_statue_s01.iff	0	57.5259	9.02472	1791.55	0.73427	0.0320735	-0.0198566	0.677809		$|
8455375	0	object/static/structure/naboo/gungan_statue_s02.iff	0	57.2114	8.68125	1795.25	0.678557	0	0.734548	0		$|
8455377	0	object/static/structure/naboo/gungan_wall_ruined_sm_s02.iff	0	59.085	8.64752	1795.61	0.971338	0	-0.237703	0		$|
8455379	0	object/static/structure/naboo/gungan_wall_ruined_lg_s02.iff	0	51.7129	8.60486	1784.52	0.737005	0.252501	0.365148	0.509641		$|
8455385	0	object/static/structure/general/streetlamp_small_style_01.iff	0	57.5918	6.46119	1791.37	1	0	0	0		$|
8455389	0	object/static/structure/dantooine/dant_fish_rack.iff	0	1075.71	4.83276	1347.45	0.921061	0	0.389419	0		$|
8455390	0	object/static/structure/dantooine/dant_fence_4m.iff	0	1073.81	5.09796	1350.15	0.707388	0	-0.706825	0		$|
8455391	0	object/static/structure/dantooine/dant_fence_4m.iff	0	1075.46	5.39097	1352.8	0.978031	0	-0.20846	0		$|
8455392	0	object/static/structure/dantooine/dant_fence_4m.iff	0	1074.92	4.78999	1347.1	0.941075	0	0.338197	0		$|
8455394	0	object/tangible/camp/camp_spit.iff	0	1076.58	5.12256	1350.15	1	0	0	0		$|
8455395	0	object/tangible/camp/camp_spit.iff	0	1077.21	5.11434	1350.02	1	0	0	0		$|
8455396	0	object/tangible/camp/campfire_logs_burnt.iff	0	1076.71	5.08113	1349.74	1	0	0	0		$|
8455397	0	object/tangible/camp/camp_cot.iff	0	1075.08	5.23165	1351.31	0.882333	0	-0.470626	0		$|
9525496	0	object/static/structure/dantooine/dant_rack_spears.iff	0	1286.46	6	2041.37	-0.179814	0	0.983701	0		$|
9525497	0	object/static/structure/dantooine/dant_rack_spears.iff	0	1285.08	6	2041.75	-0.0591692	0	0.998248	0		$|
9525519	0	object/static/structure/naboo/gungan_statue_s01.iff	0	1279.07	6	2028.37	0.905429	0	-0.424498	0		$|
9525520	0	object/tangible/speaker/speaker.iff	0	1321	6	2042.58	0.908965	0	-0.416872	0		$|
9525521	0	object/tangible/instrument/nalargon.iff	0	1323.97	6	2035.64	0.821595	0	-0.570071	0		$|
9525522	0	object/tangible/instrument/ommni_box.iff	0	1318.26	6	2031.72	0.988012	0	0.154379	0		$|
9525523	0	object/tangible/microphone/microphone.iff	0	1315.69	6	2038.32	0.900447	0	-0.434965	0		$|
9525524	0	object/tangible/speaker/speaker.iff	0	1312.49	6	2033.25	0.915116	0	-0.403191	0		$|
9525528	0	object/static/structure/general/streetlamp_small_style_01.iff	0	1315.08	6	2038.86	-0.390152	0	0.920751	0		$|
9525568	0	object/tangible/crafting/station/public_structure_station.iff	0	1199.85	6	1973.22	0.89791	0	-0.440178	0		$|
9525569	0	object/static/structure/general/all_foodcart_s01.iff	0	1269.78	6	2018.78	0.941075	0	0.338197	0		$|
9525585	0	object/static/structure/general/data_terminal_free_s1.iff	0	1263.28	6	2018.88	0.652437	0	0.757843	0		$|
1340398	0	object/building/naboo/thm_nboo_block_bldg_32x16_style_02.iff	0	1191.81	6	2001.39	-0.345807	0	0.938306	0		$|
1697420	0	object/building/naboo/thm_nboo_block_bldg_64x32_style_01.iff	0	1550.1	6	2034.84	0.883413	0	-0.468596	0		$|
1697423	0	object/building/naboo/filler_building_naboo_theed_style_5.iff	0	1506.34	6	2005.24	0.956014	0	0.293321	0		$|
1697424	0	object/building/naboo/filler_building_naboo_theed_style_10.iff	0	1466.7	6	1987.37	0.468594	0	0.883413	0		$|
1697428	0	object/building/naboo/thm_nboo_block_bldg_32x16_style_01.iff	0	1505.86	6	1919.74	-0.293321	0	0.956014	0		$|
1697430	0	object/building/naboo/thm_nboo_block_bldg_32x16_style_02.iff	0	1484.96	6	1954.9	0.468594	0	0.883413	0		$|
1697433	0	object/building/naboo/filler_building_naboo_theed_style_3.iff	0	1528.62	6	1966.49	-0.293702	0	0.955897	0		$|
1697434	0	object/building/naboo/thm_nboo_block_bldg_64x32_s02.iff	0	1470.54	6	1885.45	0.468594	0	0.883414	0		$|
1697437	0	object/building/naboo/thm_nboo_block_bldg_64x32_style_01.iff	0	1438.71	6	1936.48	0.468596	0	0.883412	0		$|
1697440	0	object/building/naboo/filler_building_naboo_theed_style_5.iff	0	1294.77	6	2023.7	0.419323	0	0.907837	0		$|
1697444	0	object/building/naboo/thm_nboo_block_bldg_64x32_style_01.iff	0	1211.12	6	1951.79	0.940159	0	0.340735	0		$|
5125611	0	object/building/naboo/filler_building_naboo_theed_style_2.iff	0	424.091	5.84693	1988.59	-0.0257879	0	0.999667	0		$|
