objid	container	server_template_crc	cell_index	px	py	pz	qw	qx	qy	qz	scripts	objvars
i	i	h	i	f	f	f	f	f	f	f	s	p
8185518	0	object/building/military/military_outpost_guard_tower_1.iff	0	486.037	-195.152	1908.69	0.709794	0	0.704409	0		$|
8185519	0	object/static/structure/military/military_column_weak_imperial_style_01.iff	0	481.867	-195.543	1903.45	0.995004	0	0	0.0998334		$|
8185520	0	object/static/structure/military/military_column_med_imperial_style_01.iff	0	490.128	-195.552	1902.71	0.877582	0	0	0.479426		$|
8365352	0	object/static/structure/naboo/gungan_pillar_ruined_s01.iff	0	356.176	-197.093	1332.3	0.976976	0	0	0.213347		$|
8365353	0	object/static/structure/naboo/gungan_pillar_ruined_s01.iff	0	355.96	-196.959	1328.36	0.981048	0	0	-0.193767		$|
8365354	0	object/static/structure/naboo/gungan_pillar_ruined_s01.iff	0	352.531	-197.239	1335.59	0.965092	0	0	0.261909		$|
8365355	0	object/static/structure/naboo/gungan_pillar_ruined_s01.iff	0	352.651	-196.42	1326.56	0.999388	0	0	-0.0349929		$|
8365357	0	object/static/structure/naboo/gungan_pillar_ruined_s01.iff	0	349.448	-196.813	1328.89	0.986418	0	0	-0.164252		$|
8365358	0	object/static/structure/naboo/gungan_statue_s03.iff	0	352.63	-196.468	1330.69	1	0	0	0		$|
8365359	0	object/static/structure/naboo/gungan_pillar_ruined_s01.iff	0	350.157	-196.825	1332.19	0.9998	0	0	-0.0199992		$|
8365360	0	object/static/structure/general/streetlamp_small_green_style_01.iff	0	352.74	-198.772	1333.63	1	0	0	0		$|
8365368	0	object/static/flora/flora_decd_scorched_tallbirch_broke.iff	0	1369.47	-196.226	1109.23	1	0	0	0		$|
8365369	0	object/static/flora/flora_bush_yavin_blueleaf.iff	0	1368.39	-196.215	1109.01	0.741831	0	0	0.670587		$|
8365370	0	object/static/flora/flora_bush_yavin_blueleaf.iff	0	1370.63	-196.146	1108.24	1	0	0	0		$|
8365371	0	object/static/flora/flora_bush_yavin_blueleaf.iff	0	1369.93	-191.76	1109.63	0.786917	0	0	-0.617059		$|
8365372	0	object/static/flora/flora_bush_yavin_blueleaf.iff	0	1369.43	-187.893	1108.94	0.751806	0	0	-0.659385		$|
8365373	0	object/static/flora/flora_bush_yavin_blueleaf.iff	0	1369.02	-184.131	1109.23	0.808028	0	0	-0.589144		$|
8365374	0	object/static/flora/flora_bush_yavin_blueleaf.iff	0	1368.47	-187.865	1109	0.707387	0	0	0.706826		$|
8365375	0	object/static/flora/flora_bush_yavin_blueleaf.iff	0	1368.94	-190.796	1109.04	0.783822	0	0	0.620986		$|
8365376	0	object/static/flora/flora_bush_yavin_blueleaf.iff	0	1368.69	-191.724	1110.03	0.399495	0.399495	0.583441	0.583442		$|
8365377	0	object/static/flora/flora_bush_yavin_blueleaf.iff	0	1368.83	-183.228	1109.15	1	0	0	0		$|
8365378	0	object/static/flora/flora_bush_yavin_blueleaf.iff	0	1368.61	-185.663	1110.1	-0.5	-0.5	0.5	0.5		$|
8365379	0	object/static/structure/general/streetlamp_small_blue_style_01.iff	0	1370.04	-198.41	1111.04	1	0	0	0		$|
8365381	0	object/static/structure/naboo/elevated_walkway_s02.iff	0	1979.7	-192.106	114.278	0.999888	0	-0.0149994	0		$|
8365390	0	object/static/structure/general/droid_droideka_powerdown.iff	0	1983.38	-191.484	113.735	1	0	0	0		$|
8365391	0	object/static/structure/tatooine/debris_tatt_crate_1.iff	0	1982.59	-192.335	115.054	1	0	0	0		$|
8365392	0	object/static/structure/tatooine/debris_tatt_crate_metal_1.iff	0	1983.51	-191.327	114.745	1	0	0	0		$|
8365393	0	object/static/structure/tatooine/debris_tatt_drum_dented_1.iff	0	1983.06	-192.32	110.66	0.830941	0	0	0.556361		$|
8365394	0	object/static/structure/tatooine/debris_tatt_drum_storage_2.iff	0	1982.61	-192.085	116.05	1	0	0	0		$|
8455408	0	object/static/structure/general/droid_droideka_powerdown.iff	0	40.1016	8.4874	201.356	1	0	0	0		$|
8455409	0	object/static/structure/tatooine/debris_tatt_crate_1.iff	0	44.5559	9.22914	199.808	1	0	0	0		$|
8455410	0	object/static/structure/tatooine/debris_tatt_crate_metal_1.iff	0	45.2896	8.94586	200.131	1	0	0	0		$|
8455411	0	object/static/structure/tatooine/debris_tatt_drum_dented_1.iff	0	45.277	8.91705	201.567	1	0	0	0		$|
8455412	0	object/static/structure/tatooine/debris_tatt_drum_storage_1.iff	0	43.9718	9.07005	200.727	1	0	0	0		$|
8455413	0	object/static/structure/general/prp_junk_s1.iff	0	48.2136	9.69743	199.414	1	0	0	0		$|
8455414	0	object/static/structure/general/prp_junk_s2.iff	0	42.8011	9.21537	200.041	0.589637	0.395089	0.403392	0.577501		$|
8455415	0	object/static/structure/general/prp_junk_s4.iff	0	38.8359	9.50124	198.809	0.939373	0	0	-0.342898		$|
8455418	0	object/static/structure/general/prp_junk_s6.iff	0	47.0328	9.29369	197.293	1	0	0	0		$|
8455420	0	object/static/structure/general/prp_junk_s8.iff	0	49.4969	8.79405	197.84	1	0	0	0		$|
8455421	0	object/static/structure/general/streetlamp_small_style_01.iff	0	44.9025	7.40319	198.356	1	0	0	0		$|
