db_id	templateFilename
s	s
hair_bothan_male_s02	object/tangible/hair/bothan/hair_bothan_male_s02.iff
hair_bothan_male_s03	object/tangible/hair/bothan/hair_bothan_male_s03.iff
hair_bothan_male_s05	object/tangible/hair/bothan/hair_bothan_male_s05.iff
hair_bothan_male_s06	object/tangible/hair/bothan/hair_bothan_male_s06.iff
hair_bothan_male_s18	object/tangible/hair/bothan/hair_bothan_male_s18.iff
hair_bothan_male_s20	object/tangible/hair/bothan/hair_bothan_male_s20.iff
