objid	container	server_template_crc	cell_index	px	py	pz	qw	qx	qy	qz	scripts	objvars
i	i	h	i	f	f	f	f	f	f	f	s	p
7146386	0	object/static/structure/general/gravestone_generic_style_01.iff	0	1313.71	591.96	1416.81	1	0	0	0		$|
7146387	0	object/static/structure/general/gravestone_generic_style_02.iff	0	1319.91	593.379	1420.06	1	0	0	0		$|
7146388	0	object/static/structure/general/gravestone_generic_style_03.iff	0	1327.11	594.607	1421.67	1	0	0	0		$|
7146389	0	object/static/structure/general/gravestone_generic_style_04.iff	0	1336.91	595.486	1424.25	1	0	0	0		$|
7146391	0	object/static/structure/general/gravestone_generic_style_04.iff	0	1323.85	591.447	1415.47	1	0	0	0		$|
7146392	0	object/static/structure/general/gravestone_generic_style_03.iff	0	1330.62	593.485	1415.56	1	0	0	0		$|
7146393	0	object/static/structure/general/gravestone_generic_style_02.iff	0	1338.73	595.02	1417.31	1	0	0	0		$|
7146394	0	object/static/structure/general/gravestone_generic_style_01.iff	0	1321.68	588.073	1409.25	1	0	0	0		$|
7146395	0	object/static/structure/general/gravestone_generic_style_02.iff	0	1327.59	589.884	1411.17	1	0	0	0		$|
7146396	0	object/static/structure/general/gravestone_generic_style_03.iff	0	1334.65	592.861	1410.56	1	0	0	0		$|
7146397	0	object/static/structure/general/gravestone_generic_style_04.iff	0	1338.84	594.496	1412.75	1	0	0	0		$|
7146399	0	object/static/structure/general/gravestone_generic_style_04.iff	0	1332.13	589.892	1405.96	1	0	0	0		$|
7146400	0	object/static/structure/general/gravestone_generic_style_03.iff	0	1336.5	591.825	1407.37	1	0	0	0		$|
7146401	0	object/static/structure/general/gravestone_generic_style_02.iff	0	1316.74	589.715	1414.01	1	0	0	0		$|
7146402	0	object/static/structure/general/gravestone_generic_style_02.iff	0	1327.1	588.621	1404.06	1	0	0	0		$|
7146404	0	object/static/structure/general/gravestone_generic_style_02.iff	0	1375.21	570.421	1390.23	1	0	0	0		$|
7146405	0	object/static/structure/general/gravestone_generic_style_02.iff	0	1376.59	571.673	1395.24	1	0	0	0		$|
7146406	0	object/static/structure/general/gravestone_generic_style_03.iff	0	1375.09	567.7	1384.47	1	0	0	0		$|
7146407	0	object/static/structure/general/gravestone_generic_style_04.iff	0	1369.98	574.502	1395.89	1	0	0	0		$|
7146409	0	object/static/structure/general/gravestone_generic_style_04.iff	0	1368.38	570.625	1386.4	1	0	0	0		$|
7146410	0	object/static/structure/general/gravestone_generic_style_03.iff	0	1365.46	574.681	1397.15	1	0	0	0		$|
7146411	0	object/static/structure/general/gravestone_generic_style_02.iff	0	1365	571.228	1391.83	1	0	0	0		$|
7146412	0	object/static/structure/general/gravestone_generic_style_01.iff	0	1363.54	570.438	1387.47	1	0	0	0		$|
7146414	0	object/static/structure/general/gravestone_generic_style_03.iff	0	1370.97	572.747	1392.32	1	0	0	0		$|
7146415	0	object/static/structure/naboo/poi_nboo_tent_small.iff	0	1364.45	566.873	1375.82	0.986683	-0.149123	-0.00454309	-0.0647952		$|
7146416	0	object/static/structure/general/camp_stool_tall_s01.iff	0	1367.52	566.428	1375.54	1	0	0	0		$|
7146417	0	object/static/structure/general/camp_stool_tall_s01.iff	0	1364.97	567.458	1378.33	1	0	0	0		$|
7146419	0	object/static/structure/naboo/poi_nboo_tent_small.iff	0	1313.06	590.506	1408.31	0.989554	0.000535751	-0.0214253	-0.142559		$|
7146420	0	object/static/structure/general/camp_cot_s01.iff	0	1313.88	590.233	1407.52	0.983831	0.0049192	-0.000895144	-0.179027		$|
7146421	0	object/static/structure/general/skeleton_human_head.iff	0	1313.36	590.876	1407.54	0.983844	0	0	-0.17903		$|
7146422	0	object/static/structure/general/skeleton_ithorian_head.iff	0	1314.32	590.557	1407.48	0.778676	-0.113825	-0.606549	-0.113162		$|
7146423	0	object/static/structure/general/skeleton_bith_head.iff	0	1313.73	590.77	1407.45	0.0728704	0.18344	0.980231	0.013637		$|
7146424	0	object/static/structure/general/camp_stool_tall_s01.iff	0	1311.53	591.107	1406.5	1	0	0	0		$|
7146425	0	object/static/structure/general/camp_stool_tall_s01.iff	0	1309.79	591.386	1408.88	1	0	0	0		$|
7146426	0	object/static/structure/tatooine/debris_tatt_drum_storage_1.iff	0	1311.71	590.994	1409.69	1	0	0	0		$|
8545374	0	object/static/structure/dantooine/dant_large_rock_hut.iff	0	662.919	443.687	947.436	0.99955	0	0.0299955	0		$|
8545375	0	object/static/structure/general/streetlamp_small_green_style_01.iff	0	662.85	442.358	945.517	1	0	0	0		$|
8545376	0	object/static/structure/general/debris_deathstar_turbolaser.iff	0	685.503	620.593	1751.35	0.758482	0.0689277	-0.644064	0.0716598		$|
8545377	0	object/static/structure/general/debris_deathstar_small_chunk.iff	0	684.571	619.724	1753.46	-0.590639	0.21374	0.745283	0.223636		$|
8545464	0	object/static/flora/flora_decd_scorched_tallbirch.iff	0	1170.51	148.268	86.8716	-0.594147	0.78842	0.0958832	-0.127235		$|
8545465	0	object/static/structure/tatooine/guild_statue_free_style_01.iff	0	1453.94	374.176	725.631	0.164855	-0.0238489	0.985798	0.0213492		$|
8545466	0	object/static/structure/general/streetlamp_small_green_style_01.iff	0	1453.96	375.64	724.17	1	0	0	0		$|
8545469	0	object/static/structure/dantooine/dant_totem_pole.iff	0	1311.95	614.982	1462.57	0.999538	0.000149977	-0.0299951	-0.00499773		$|
8905352	0	object/static/flora/flora_decd_scorched_tallbirch.iff	0	1958.16	148.563	223.957	0.405478	-0.50577	0.640808	0.411277		$|
8905353	0	object/static/structure/naboo/gungan_pillar_damaged_s01.iff	0	1963.77	433.674	1315.1	-0.579433	0.408144	0.687368	-0.158749		$|
8905354	0	object/static/structure/naboo/gungan_pillar_ruined_s01.iff	0	1958.98	433.271	1311.35	-0.194329	0.360934	0.898013	-0.159799		$|
7146418	0	object/static/structure/tatooine/palette_supply_02.iff	0	1364.39	565.999	1374.72	0.986418	-0.164252	0	0		$|
