objid	container	server_template_crc	cell_index	px	py	pz	qw	qx	qy	qz	scripts	objvars
i	i	h	i	f	f	f	f	f	f	f	s	p
2975354	0	object/static/structure/general/streetlamp_small_red_style_02.iff	0	281.542	58.3286	1214.74	1	0	0	0		$|
5685405	0	object/static/structure/general/tato_cave_rock_med.iff	0	281.578	61.1596	1215	0.954782	0.0188848	-0.290126	-0.0621484		$|
5685406	0	object/static/structure/general/tato_cave_rock_med.iff	0	281.809	61.1613	1215.31	0.954782	0.0188848	-0.290126	-0.0621484		$|
5685407	0	object/static/structure/general/tato_cave_rock_med.iff	0	281.577	60.9936	1214.57	0.985669	0.118851	-0.118851	0.014331		$|
5685409	0	object/static/structure/general/tato_cave_rock_med.iff	0	281.609	60.9192	1214.04	0.893822	0	-0.448423	0		$|
5685411	0	object/static/structure/general/tato_cave_rock_med.iff	0	281.348	61.2294	1215.24	0.992809	0	-0.119712	0		$|
5685412	0	object/static/structure/general/tato_cave_rock_med.iff	0	281.671	61.2788	1215.46	0.992809	0	-0.119712	0		$|
5685413	0	object/static/structure/general/tato_cave_rock_med.iff	0	281.348	61.1241	1214.75	0.992809	0	-0.119712	0		$|
5685414	0	object/static/structure/general/tato_cave_rock_med.iff	0	281.97	61.1166	1214.95	0.954782	0.0188848	-0.290126	-0.0621484		$|
5685415	0	object/static/structure/general/tato_cave_rock_med.iff	0	281.423	61.0359	1214.28	0.985669	0.118851	-0.118851	0.014331		$|
5685416	0	object/static/structure/general/tato_cave_rock_med.iff	0	281.905	61.0066	1214.44	0.992809	0	-0.119712	0		$|
5685417	0	object/static/structure/general/tato_cave_rock_med.iff	0	281.617	61.2273	1214.79	0.928543	0.023791	-0.365499	-0.0604404		$|
5685418	0	object/static/structure/general/tato_cave_rock_med.iff	0	281.795	61.2287	1215.15	0.928543	0.023791	-0.365499	-0.0604404		$|
5685419	0	object/static/structure/general/tato_cave_rock_med.iff	0	281.609	61.0963	1214.39	0.973019	0.117326	-0.197241	0.0237831		$|
5685421	0	object/static/structure/general/tato_cave_rock_med.iff	0	281.808	60.9739	1213.97	0.855127	0	-0.518418	0		$|
5685423	0	object/static/structure/general/tato_cave_rock_med.iff	0	282.147	61.0238	1214.37	0.0155171	0.939819	-0.0430704	-0.338591		$|
5685424	0	object/static/structure/general/tato_cave_rock_med.iff	0	281.927	61.1039	1214.67	0.872744	0	0	-0.488177		$|
5685425	0	object/static/structure/general/tato_cave_rock_med.iff	0	282.021	61.0647	1214.24	0.796084	0	0	-0.605186		$|
6625605	0	object/tangible/jedi/force_shrine_stone.iff	0	1963.23	105.294	1839.68	0.707107	0	0.707107	0		$|
6625606	0	object/static/structure/dantooine/dant_jedi_temple_pillar_sm.iff	0	1958.81	106.38	1838.09	0.707113	0	0.7071	0		$|
6625607	0	object/static/structure/dantooine/dant_jedi_temple_pillar_sm.iff	0	1967.5	106.461	1838.12	1	0	0	0		$|
6625608	0	object/static/structure/dantooine/dant_jedi_temple_pillar_base.iff	0	1962.26	106.405	1838.07	0	0	1	0		$|
6625609	0	object/static/structure/dantooine/dant_jedi_temple_pillar_base.iff	0	1964.06	106.384	1838.03	1	0	0	0		$|
6625610	0	object/static/structure/dantooine/dant_jedi_temple_altar.iff	0	1963.17	88.4407	1838.09	1	0	0	0		$|
6625611	0	object/static/particle/pt_poi_electricity_2x2.iff	0	1963.24	106.417	1839.68	1	0	0	0		$|
9025485	0	object/static/structure/general/tato_cave_stalagmite_small.iff	0	281.35	60.5193	1215.86	0.380925	0	0.924606	0		$|
9025487	0	object/static/structure/general/skeleton_human_head.iff	0	281.148	62.8802	1215.82	0.188636	-0.0900338	0.959968	-0.18647		$|
9095378	0	object/static/structure/general/skeleton_human_body.iff	0	1376.33	40.9463	72.9038	1	0	0	0		$|
9095379	0	object/static/structure/general/skeleton_human_head.iff	0	1376.96	41.5109	72.2212	0.96639	0	0	-0.257081		$|
9095380	0	object/static/structure/general/skeleton_human_headandbody.iff	0	1374.8	40.4918	77.4468	-0.568705	-0.01784	0.821021	0.0466867		$|
9095381	0	object/static/structure/general/skeleton_human_headandbody.iff	0	1374.61	40.5435	74.8506	0.930508	0	0.366273	0		$|
9095382	0	object/static/structure/general/skeleton_ithorian_head.iff	0	1373.82	40.916	74.4023	0.485454	0.104907	0.802194	-0.331381		$|
9095383	0	object/static/structure/general/skeleton_bith_headandbody.iff	0	1375.99	40.3514	75.8667	1	0	0	0		$|
9095384	0	object/static/structure/general/skeleton_ithorian_headandbody.iff	0	1375.8	40.6253	74.5532	1	0	0	0		$|
