SPECIES_GENDER	ALLOW_BALD
s	b[1]
moncal_female	
moncal_male	
bothan_female	
bothan_male	
zabrak_female	0
zabrak_male	0
twilek_female	0
twilek_male	0
trandoshan_female	0
trandoshan_male	0
wookiee_female	
wookiee_male	
rodian_female	
rodian_male	
human_female
human_male
